  85000: system.cpu.execute: 85000;s;i;0
27020000: system.cpu.execute: 27020000;f;i;0
27020000: system.cpu.execute: 27020000;s;f;0
29533125: system.cpu.execute: 29533125;f;f;0
29533125: system.cpu.execute: 29533125;s;e;0
29533125: system.cpu.execute: 29533125;s;f;0
40804375: system.cpu.execute: 40804375;f;f;0
40804375: system.cpu.execute: 40804375;s;i;1
44838750: system.cpu.execute: 44838750;f;i;1
44838750: system.cpu.execute: 44838750;s;i;2
48921250: system.cpu.execute: 48921250;f;i;2
48921250: system.cpu.execute: 48921250;s;i;3
52948125: system.cpu.execute: 52948125;f;i;3
52948750: system.cpu.execute: 52948750;s;i;4
57030000: system.cpu.execute: 57030000;f;i;4
57030000: system.cpu.execute: 57030000;s;i;5
61062500: system.cpu.execute: 61062500;f;i;5
61062500: system.cpu.execute: 61062500;s;i;6
65141250: system.cpu.execute: 65141250;f;i;6
65141875: system.cpu.execute: 65141875;s;i;7
69178750: system.cpu.execute: 69178750;f;i;7
69179375: system.cpu.execute: 69179375;s;i;8
73258125: system.cpu.execute: 73258125;f;i;8
73258750: system.cpu.execute: 73258750;s;i;9
77337500: system.cpu.execute: 77337500;f;i;9
77337500: system.cpu.execute: 77337500;s;i;10
81368750: system.cpu.execute: 81368750;f;i;10
81369375: system.cpu.execute: 81369375;s;i;11
85445625: system.cpu.execute: 85445625;f;i;11
85445625: system.cpu.execute: 85445625;s;i;12
89478750: system.cpu.execute: 89478750;f;i;12
89478750: system.cpu.execute: 89478750;s;i;13
93561250: system.cpu.execute: 93561250;f;i;13
93561875: system.cpu.execute: 93561875;s;i;14
97595625: system.cpu.execute: 97595625;f;i;14
97595625: system.cpu.execute: 97595625;s;i;15
101675000: system.cpu.execute: 101675000;f;i;15
101675000: system.cpu.execute: 101675000;s;i;16
105706875: system.cpu.execute: 105706875;f;i;16
105707500: system.cpu.execute: 105707500;s;i;17
109784375: system.cpu.execute: 109784375;f;i;17
109785000: system.cpu.execute: 109785000;s;i;18
113815625: system.cpu.execute: 113815625;f;i;18
113816250: system.cpu.execute: 113816250;s;i;19
117898750: system.cpu.execute: 117898750;f;i;19
117898750: system.cpu.execute: 117898750;s;i;20
121932500: system.cpu.execute: 121932500;f;i;20
121933125: system.cpu.execute: 121933125;s;i;21
126011875: system.cpu.execute: 126011875;f;i;21
126012500: system.cpu.execute: 126012500;s;i;22
130045000: system.cpu.execute: 130045000;f;i;22
130045625: system.cpu.execute: 130045625;s;i;23
134123750: system.cpu.execute: 134123750;f;i;23
134123750: system.cpu.execute: 134123750;s;i;24
138173750: system.cpu.execute: 138173750;f;i;24
138174375: system.cpu.execute: 138174375;s;i;25
142235625: system.cpu.execute: 142235625;f;i;25
142236250: system.cpu.execute: 142236250;s;i;26
146315000: system.cpu.execute: 146315000;f;i;26
146315000: system.cpu.execute: 146315000;s;i;27
150349375: system.cpu.execute: 150349375;f;i;27
150349375: system.cpu.execute: 150349375;s;i;28
154431875: system.cpu.execute: 154431875;f;i;28
154431875: system.cpu.execute: 154431875;s;i;29
158466250: system.cpu.execute: 158466250;f;i;29
158466250: system.cpu.execute: 158466250;s;i;30
162543125: system.cpu.execute: 162543125;f;i;30
162543750: system.cpu.execute: 162543750;s;i;31
166573125: system.cpu.execute: 166573125;f;i;31
166573125: system.cpu.execute: 166573125;s;i;32
170651875: system.cpu.execute: 170651875;f;i;32
170652500: system.cpu.execute: 170652500;s;i;33
174686250: system.cpu.execute: 174686250;f;i;33
174686875: system.cpu.execute: 174686875;s;i;34
178768750: system.cpu.execute: 178768750;f;i;34
178769375: system.cpu.execute: 178769375;s;i;35
182803125: system.cpu.execute: 182803125;f;i;35
182803750: system.cpu.execute: 182803750;s;i;36
186882500: system.cpu.execute: 186882500;f;i;36
186883125: system.cpu.execute: 186883125;s;i;37
190910000: system.cpu.execute: 190910000;f;i;37
190910625: system.cpu.execute: 190910625;s;i;38
194989375: system.cpu.execute: 194989375;f;i;38
194989375: system.cpu.execute: 194989375;s;i;39
199030000: system.cpu.execute: 199030000;f;i;39
199031250: system.cpu.execute: 199031250;s;i;40
203106250: system.cpu.execute: 203106250;f;i;40
203106875: system.cpu.execute: 203106875;s;i;41
207185000: system.cpu.execute: 207185000;f;i;41
207185625: system.cpu.execute: 207185625;s;i;42
211220000: system.cpu.execute: 211220000;f;i;42
211220000: system.cpu.execute: 211220000;s;i;43
215302500: system.cpu.execute: 215302500;f;i;43
215302500: system.cpu.execute: 215302500;s;i;44
219326250: system.cpu.execute: 219326250;f;i;44
219326875: system.cpu.execute: 219326875;s;i;45
223409375: system.cpu.execute: 223409375;f;i;45
223409375: system.cpu.execute: 223409375;s;i;46
227443750: system.cpu.execute: 227443750;f;i;46
227443750: system.cpu.execute: 227443750;s;i;47
231522500: system.cpu.execute: 231522500;f;i;47
231523125: system.cpu.execute: 231523125;s;i;48
235556875: system.cpu.execute: 235556875;f;i;48
235557500: system.cpu.execute: 235557500;s;i;49
239639375: system.cpu.execute: 239639375;f;i;49
239640000: system.cpu.execute: 239640000;s;i;50
243665000: system.cpu.execute: 243665000;f;i;50
243665000: system.cpu.execute: 243665000;s;i;51
247746250: system.cpu.execute: 247746250;f;i;51
247746875: system.cpu.execute: 247746875;s;i;52
251780625: system.cpu.execute: 251780625;f;i;52
251781250: system.cpu.execute: 251781250;s;i;53
255860000: system.cpu.execute: 255860000;f;i;53
255860000: system.cpu.execute: 255860000;s;i;54
259895000: system.cpu.execute: 259895000;f;i;54
259896250: system.cpu.execute: 259896250;s;i;55
263976875: system.cpu.execute: 263976875;f;i;55
263976875: system.cpu.execute: 263976875;s;i;56
268033750: system.cpu.execute: 268033750;f;i;56
268035625: system.cpu.execute: 268035625;s;i;57
272083750: system.cpu.execute: 272083750;f;i;57
272083750: system.cpu.execute: 272083750;s;i;58
276162500: system.cpu.execute: 276162500;f;i;58
276163125: system.cpu.execute: 276163125;s;i;59
280196875: system.cpu.execute: 280196875;f;i;59
280197500: system.cpu.execute: 280197500;s;i;60
284280000: system.cpu.execute: 284280000;f;i;60
284280000: system.cpu.execute: 284280000;s;i;61
288313750: system.cpu.execute: 288313750;f;i;61
288314375: system.cpu.execute: 288314375;s;i;62
292393125: system.cpu.execute: 292393125;f;i;62
292393750: system.cpu.execute: 292393750;s;i;63
296421875: system.cpu.execute: 296421875;f;i;63
296422500: system.cpu.execute: 296422500;s;i;64
300501250: system.cpu.execute: 300501250;f;i;64
300501250: system.cpu.execute: 300501250;s;i;65
304534375: system.cpu.execute: 304534375;f;i;65
304534375: system.cpu.execute: 304534375;s;i;66
308616875: system.cpu.execute: 308616875;f;i;66
308617500: system.cpu.execute: 308617500;s;i;67
312651250: system.cpu.execute: 312651250;f;i;67
312651250: system.cpu.execute: 312651250;s;i;68
316730625: system.cpu.execute: 316730625;f;i;68
316730625: system.cpu.execute: 316730625;s;i;69
320760625: system.cpu.execute: 320760625;f;i;69
320761250: system.cpu.execute: 320761250;s;i;70
324838125: system.cpu.execute: 324838125;f;i;70
324838750: system.cpu.execute: 324838750;s;i;71
328881875: system.cpu.execute: 328881875;f;i;71
328883125: system.cpu.execute: 328883125;s;i;72
332954375: system.cpu.execute: 332954375;f;i;72
332954375: system.cpu.execute: 332954375;s;i;73
337033125: system.cpu.execute: 337033125;f;i;73
337033750: system.cpu.execute: 337033750;s;i;74
341067500: system.cpu.execute: 341067500;f;i;74
341068125: system.cpu.execute: 341068125;s;i;75
345150000: system.cpu.execute: 345150000;f;i;75
345150625: system.cpu.execute: 345150625;s;i;76
349176250: system.cpu.execute: 349176250;f;i;76
349176875: system.cpu.execute: 349176875;s;i;77
353258125: system.cpu.execute: 353258125;f;i;77
353258750: system.cpu.execute: 353258750;s;i;78
357291250: system.cpu.execute: 357291250;f;i;78
357291875: system.cpu.execute: 357291875;s;i;79
361370625: system.cpu.execute: 361370625;f;i;79
361370625: system.cpu.execute: 361370625;s;i;80
365405000: system.cpu.execute: 365405000;f;i;80
365405000: system.cpu.execute: 365405000;s;i;81
369487500: system.cpu.execute: 369487500;f;i;81
369487500: system.cpu.execute: 369487500;s;i;82
373515625: system.cpu.execute: 373515625;f;i;82
373516250: system.cpu.execute: 373516250;s;i;83
377596875: system.cpu.execute: 377596875;f;i;83
377597500: system.cpu.execute: 377597500;s;i;84
381628750: system.cpu.execute: 381628750;f;i;84
381628750: system.cpu.execute: 381628750;s;i;85
385707500: system.cpu.execute: 385707500;f;i;85
385708125: system.cpu.execute: 385708125;s;i;86
389746250: system.cpu.execute: 389746250;f;i;86
389747500: system.cpu.execute: 389747500;s;i;87
393824375: system.cpu.execute: 393824375;f;i;87
393825000: system.cpu.execute: 393825000;s;i;88
397903750: system.cpu.execute: 397903750;f;i;88
397903750: system.cpu.execute: 397903750;s;i;89
401936250: system.cpu.execute: 401936250;f;i;89
401936250: system.cpu.execute: 401936250;s;i;90
406012500: system.cpu.execute: 406012500;f;i;90
406013125: system.cpu.execute: 406013125;s;i;91
410045000: system.cpu.execute: 410045000;f;i;91
410045000: system.cpu.execute: 410045000;s;i;92
414127500: system.cpu.execute: 414127500;f;i;92
414128125: system.cpu.execute: 414128125;s;i;93
418161875: system.cpu.execute: 418161875;f;i;93
418161875: system.cpu.execute: 418161875;s;i;94
422241250: system.cpu.execute: 422241250;f;i;94
422241250: system.cpu.execute: 422241250;s;i;95
426274375: system.cpu.execute: 426274375;f;i;95
426274375: system.cpu.execute: 426274375;s;i;96
430351875: system.cpu.execute: 430351875;f;i;96
430352500: system.cpu.execute: 430352500;s;i;97
434381875: system.cpu.execute: 434381875;f;i;97
434382500: system.cpu.execute: 434382500;s;i;98
438465000: system.cpu.execute: 438465000;f;i;98
438465000: system.cpu.execute: 438465000;s;i;99
442498750: system.cpu.execute: 442498750;f;i;99
442499375: system.cpu.execute: 442499375;s;i;100
446578125: system.cpu.execute: 446578125;f;i;100
446578750: system.cpu.execute: 446578750;s;i;101
450611250: system.cpu.execute: 450611250;f;i;101
450611875: system.cpu.execute: 450611875;s;i;102
454691875: system.cpu.execute: 454691875;f;i;102
454693750: system.cpu.execute: 454693750;s;i;103
458740625: system.cpu.execute: 458740625;f;i;103
458740625: system.cpu.execute: 458740625;s;i;104
462801875: system.cpu.execute: 462801875;f;i;104
462802500: system.cpu.execute: 462802500;s;i;105
466881250: system.cpu.execute: 466881250;f;i;105
466881250: system.cpu.execute: 466881250;s;i;106
470915625: system.cpu.execute: 470915625;f;i;106
470915625: system.cpu.execute: 470915625;s;i;107
474998125: system.cpu.execute: 474998125;f;i;107
474998125: system.cpu.execute: 474998125;s;i;108
479032500: system.cpu.execute: 479032500;f;i;108
479032500: system.cpu.execute: 479032500;s;i;109
483110625: system.cpu.execute: 483110625;f;i;109
483110625: system.cpu.execute: 483110625;s;i;110
487139375: system.cpu.execute: 487139375;f;i;110
487139375: system.cpu.execute: 487139375;s;i;111
491218125: system.cpu.execute: 491218125;f;i;111
491218750: system.cpu.execute: 491218750;s;i;112
495252500: system.cpu.execute: 495252500;f;i;112
495253125: system.cpu.execute: 495253125;s;i;113
499335000: system.cpu.execute: 499335000;f;i;113
499335625: system.cpu.execute: 499335625;s;i;114
503369375: system.cpu.execute: 503369375;f;i;114
503370000: system.cpu.execute: 503370000;s;i;115
507448750: system.cpu.execute: 507448750;f;i;115
507449375: system.cpu.execute: 507449375;s;i;116
511476250: system.cpu.execute: 511476250;f;i;116
511476875: system.cpu.execute: 511476875;s;i;117
515555625: system.cpu.execute: 515555625;f;i;117
515555625: system.cpu.execute: 515555625;s;i;118
519597500: system.cpu.execute: 519597500;f;i;118
519598125: system.cpu.execute: 519598125;s;i;119
523672500: system.cpu.execute: 523672500;f;i;119
523673125: system.cpu.execute: 523673125;s;i;120
527751250: system.cpu.execute: 527751250;f;i;120
527751875: system.cpu.execute: 527751875;s;i;121
531786250: system.cpu.execute: 531786250;f;i;121
531786250: system.cpu.execute: 531786250;s;i;122
535868750: system.cpu.execute: 535868750;f;i;122
535868750: system.cpu.execute: 535868750;s;i;123
539893125: system.cpu.execute: 539893125;f;i;123
539893750: system.cpu.execute: 539893750;s;i;124
543975625: system.cpu.execute: 543975625;f;i;124
543975625: system.cpu.execute: 543975625;s;i;125
548010000: system.cpu.execute: 548010000;f;i;125
548010000: system.cpu.execute: 548010000;s;i;126
552088750: system.cpu.execute: 552088750;f;i;126
552089375: system.cpu.execute: 552089375;s;i;127
556123125: system.cpu.execute: 556123125;f;i;127
556123750: system.cpu.execute: 556123750;s;i;128
560205625: system.cpu.execute: 560205625;f;i;128
560206250: system.cpu.execute: 560206250;s;i;129
564231250: system.cpu.execute: 564231250;f;i;129
564231250: system.cpu.execute: 564231250;s;i;130
568312500: system.cpu.execute: 568312500;f;i;130
568313125: system.cpu.execute: 568313125;s;i;131
572346875: system.cpu.execute: 572346875;f;i;131
572347500: system.cpu.execute: 572347500;s;i;132
576426250: system.cpu.execute: 576426250;f;i;132
576426250: system.cpu.execute: 576426250;s;i;133
580462500: system.cpu.execute: 580462500;f;i;133
580463125: system.cpu.execute: 580463125;s;i;134
584543125: system.cpu.execute: 584543125;f;i;134
584543125: system.cpu.execute: 584543125;s;i;135
588606250: system.cpu.execute: 588606250;f;i;135
588608125: system.cpu.execute: 588608125;s;i;136
592650000: system.cpu.execute: 592650000;f;i;136
592650625: system.cpu.execute: 592650625;s;i;137
596729375: system.cpu.execute: 596729375;f;i;137
596730000: system.cpu.execute: 596730000;s;i;138
600763125: system.cpu.execute: 600763125;f;i;138
600763750: system.cpu.execute: 600763750;s;i;139
604846250: system.cpu.execute: 604846250;f;i;139
604846250: system.cpu.execute: 604846250;s;i;140
608880000: system.cpu.execute: 608880000;f;i;140
608880625: system.cpu.execute: 608880625;s;i;141
612959375: system.cpu.execute: 612959375;f;i;141
612960000: system.cpu.execute: 612960000;s;i;142
616988750: system.cpu.execute: 616988750;f;i;142
616989375: system.cpu.execute: 616989375;s;i;143
621067500: system.cpu.execute: 621067500;f;i;143
621067500: system.cpu.execute: 621067500;s;i;144
625100625: system.cpu.execute: 625100625;f;i;144
625100625: system.cpu.execute: 625100625;s;i;145
629183125: system.cpu.execute: 629183125;f;i;145
629183750: system.cpu.execute: 629183750;s;i;146
633217500: system.cpu.execute: 633217500;f;i;146
633217500: system.cpu.execute: 633217500;s;i;147
637296875: system.cpu.execute: 637296875;f;i;147
637296875: system.cpu.execute: 637296875;s;i;148
641328125: system.cpu.execute: 641328125;f;i;148
641328750: system.cpu.execute: 641328750;s;i;149
645404375: system.cpu.execute: 645404375;f;i;149
645405000: system.cpu.execute: 645405000;s;i;150
649451875: system.cpu.execute: 649451875;f;i;150
649453750: system.cpu.execute: 649453750;s;i;151
653520625: system.cpu.execute: 653520625;f;i;151
653520625: system.cpu.execute: 653520625;s;i;152
657599375: system.cpu.execute: 657599375;f;i;152
657600000: system.cpu.execute: 657600000;s;i;153
661633750: system.cpu.execute: 661633750;f;i;153
661634375: system.cpu.execute: 661634375;s;i;154
665716250: system.cpu.execute: 665716250;f;i;154
665716875: system.cpu.execute: 665716875;s;i;155
669743750: system.cpu.execute: 669743750;f;i;155
669744375: system.cpu.execute: 669744375;s;i;156
673825000: system.cpu.execute: 673825000;f;i;156
673825625: system.cpu.execute: 673825625;s;i;157
677857500: system.cpu.execute: 677857500;f;i;157
677858125: system.cpu.execute: 677858125;s;i;158
681936875: system.cpu.execute: 681936875;f;i;158
681936875: system.cpu.execute: 681936875;s;i;159
685971250: system.cpu.execute: 685971250;f;i;159
685971250: system.cpu.execute: 685971250;s;i;160
690053750: system.cpu.execute: 690053750;f;i;160
690053750: system.cpu.execute: 690053750;s;i;161
694082500: system.cpu.execute: 694082500;f;i;161
694083125: system.cpu.execute: 694083125;s;i;162
698164375: system.cpu.execute: 698164375;f;i;162
698165000: system.cpu.execute: 698165000;s;i;163
702195000: system.cpu.execute: 702195000;f;i;163
702195000: system.cpu.execute: 702195000;s;i;164
706273750: system.cpu.execute: 706273750;f;i;164
706274375: system.cpu.execute: 706274375;s;i;165
710313125: system.cpu.execute: 710313125;f;i;165
710313750: system.cpu.execute: 710313750;s;i;166
714390625: system.cpu.execute: 714390625;f;i;166
714391250: system.cpu.execute: 714391250;s;i;167
718470000: system.cpu.execute: 718470000;f;i;167
718470000: system.cpu.execute: 718470000;s;i;168
722502500: system.cpu.execute: 722502500;f;i;168
722503125: system.cpu.execute: 722503125;s;i;169
726580000: system.cpu.execute: 726580000;f;i;169
726580625: system.cpu.execute: 726580625;s;i;170
730611250: system.cpu.execute: 730611250;f;i;170
730611250: system.cpu.execute: 730611250;s;i;171
734693750: system.cpu.execute: 734693750;f;i;171
734694375: system.cpu.execute: 734694375;s;i;172
738728125: system.cpu.execute: 738728125;f;i;172
738728125: system.cpu.execute: 738728125;s;i;173
742807500: system.cpu.execute: 742807500;f;i;173
742807500: system.cpu.execute: 742807500;s;i;174
746841875: system.cpu.execute: 746841875;f;i;174
746841875: system.cpu.execute: 746841875;s;i;175
750918750: system.cpu.execute: 750918750;f;i;175
750919375: system.cpu.execute: 750919375;s;i;176
754948125: system.cpu.execute: 754948125;f;i;176
754948750: system.cpu.execute: 754948750;s;i;177
759031250: system.cpu.execute: 759031250;f;i;177
759031250: system.cpu.execute: 759031250;s;i;178
763065625: system.cpu.execute: 763065625;f;i;178
763065625: system.cpu.execute: 763065625;s;i;179
767144375: system.cpu.execute: 767144375;f;i;179
767145000: system.cpu.execute: 767145000;s;i;180
771178125: system.cpu.execute: 771178125;f;i;180
771178125: system.cpu.execute: 771178125;s;i;181
775261250: system.cpu.execute: 775261250;f;i;181
775261875: system.cpu.execute: 775261875;s;i;182
779307500: system.cpu.execute: 779307500;f;i;182
779308125: system.cpu.execute: 779308125;s;i;183
783368125: system.cpu.execute: 783368125;f;i;183
783368750: system.cpu.execute: 783368750;s;i;184
787447500: system.cpu.execute: 787447500;f;i;184
787447500: system.cpu.execute: 787447500;s;i;185
791481875: system.cpu.execute: 791481875;f;i;185
791481875: system.cpu.execute: 791481875;s;i;186
795564375: system.cpu.execute: 795564375;f;i;186
795564375: system.cpu.execute: 795564375;s;i;187
799598750: system.cpu.execute: 799598750;f;i;187
799598750: system.cpu.execute: 799598750;s;i;188
803678125: system.cpu.execute: 803678125;f;i;188
803678125: system.cpu.execute: 803678125;s;i;189
807705625: system.cpu.execute: 807705625;f;i;189
807705625: system.cpu.execute: 807705625;s;i;190
811784375: system.cpu.execute: 811784375;f;i;190
811785000: system.cpu.execute: 811785000;s;i;191
815818750: system.cpu.execute: 815818750;f;i;191
815819375: system.cpu.execute: 815819375;s;i;192
819901875: system.cpu.execute: 819901875;f;i;192
819901875: system.cpu.execute: 819901875;s;i;193
823935625: system.cpu.execute: 823935625;f;i;193
823936250: system.cpu.execute: 823936250;s;i;194
828015000: system.cpu.execute: 828015000;f;i;194
828015625: system.cpu.execute: 828015625;s;i;195
832042500: system.cpu.execute: 832042500;f;i;195
832043125: system.cpu.execute: 832043125;s;i;196
836121875: system.cpu.execute: 836121875;f;i;196
836121875: system.cpu.execute: 836121875;s;i;197
840163750: system.cpu.execute: 840163750;f;i;197
840164375: system.cpu.execute: 840164375;s;i;198
844238750: system.cpu.execute: 844238750;f;i;198
844239375: system.cpu.execute: 844239375;s;i;199
848318125: system.cpu.execute: 848318125;f;i;199
848318125: system.cpu.execute: 848318125;s;i;200
852352500: system.cpu.execute: 852352500;f;i;200
852352500: system.cpu.execute: 852352500;s;i;201
856435000: system.cpu.execute: 856435000;f;i;201
856435000: system.cpu.execute: 856435000;s;i;202
860460000: system.cpu.execute: 860460000;f;i;202
860460625: system.cpu.execute: 860460625;s;i;203
864541875: system.cpu.execute: 864541875;f;i;203
864541875: system.cpu.execute: 864541875;s;i;204
868576250: system.cpu.execute: 868576250;f;i;204
868576250: system.cpu.execute: 868576250;s;i;205
872655000: system.cpu.execute: 872655000;f;i;205
872655625: system.cpu.execute: 872655625;s;i;206
876689375: system.cpu.execute: 876689375;f;i;206
876690000: system.cpu.execute: 876690000;s;i;207
880771875: system.cpu.execute: 880771875;f;i;207
880772500: system.cpu.execute: 880772500;s;i;208
884797500: system.cpu.execute: 884797500;f;i;208
884797500: system.cpu.execute: 884797500;s;i;209
888878750: system.cpu.execute: 888878750;f;i;209
888879375: system.cpu.execute: 888879375;s;i;210
892913125: system.cpu.execute: 892913125;f;i;210
892913750: system.cpu.execute: 892913750;s;i;211
896992500: system.cpu.execute: 896992500;f;i;211
896992500: system.cpu.execute: 896992500;s;i;212
901028750: system.cpu.execute: 901028750;f;i;212
901029375: system.cpu.execute: 901029375;s;i;213
905109375: system.cpu.execute: 905109375;f;i;213
905109375: system.cpu.execute: 905109375;s;i;214
909178750: system.cpu.execute: 909178750;f;i;214
909180625: system.cpu.execute: 909180625;s;i;215
913217500: system.cpu.execute: 913217500;f;i;215
913218125: system.cpu.execute: 913218125;s;i;216
917296250: system.cpu.execute: 917296250;f;i;216
917296875: system.cpu.execute: 917296875;s;i;217
921329375: system.cpu.execute: 921329375;f;i;217
921330000: system.cpu.execute: 921330000;s;i;218
925412500: system.cpu.execute: 925412500;f;i;218
925412500: system.cpu.execute: 925412500;s;i;219
929446250: system.cpu.execute: 929446250;f;i;219
929446875: system.cpu.execute: 929446875;s;i;220
933525625: system.cpu.execute: 933525625;f;i;220
933526250: system.cpu.execute: 933526250;s;i;221
937556250: system.cpu.execute: 937556250;f;i;221
937556875: system.cpu.execute: 937556875;s;i;222
941633750: system.cpu.execute: 941633750;f;i;222
941633750: system.cpu.execute: 941633750;s;i;223
945666875: system.cpu.execute: 945666875;f;i;223
945666875: system.cpu.execute: 945666875;s;i;224
949749375: system.cpu.execute: 949749375;f;i;224
949750000: system.cpu.execute: 949750000;s;i;225
953783750: system.cpu.execute: 953783750;f;i;225
953783750: system.cpu.execute: 953783750;s;i;226
957863125: system.cpu.execute: 957863125;f;i;226
957863125: system.cpu.execute: 957863125;s;i;227
961895000: system.cpu.execute: 961895000;f;i;227
961895625: system.cpu.execute: 961895625;s;i;228
965971875: system.cpu.execute: 965971875;f;i;228
965972500: system.cpu.execute: 965972500;s;i;229
970023125: system.cpu.execute: 970023125;f;i;229
970024375: system.cpu.execute: 970024375;s;i;230
974086875: system.cpu.execute: 974086875;f;i;230
974086875: system.cpu.execute: 974086875;s;i;231
978165625: system.cpu.execute: 978165625;f;i;231
978166250: system.cpu.execute: 978166250;s;i;232
982200000: system.cpu.execute: 982200000;f;i;232
982200625: system.cpu.execute: 982200625;s;i;233
986282500: system.cpu.execute: 986282500;f;i;233
986283125: system.cpu.execute: 986283125;s;i;234
990311250: system.cpu.execute: 990311250;f;i;234
990311875: system.cpu.execute: 990311875;s;i;235
994392500: system.cpu.execute: 994392500;f;i;235
994393125: system.cpu.execute: 994393125;s;i;236
998423750: system.cpu.execute: 998423750;f;i;236
998424375: system.cpu.execute: 998424375;s;i;237
1002503125: system.cpu.execute: 1002503125;f;i;237
1002503125: system.cpu.execute: 1002503125;s;i;238
1006537500: system.cpu.execute: 1006537500;f;i;238
1006537500: system.cpu.execute: 1006537500;s;i;239
1010620000: system.cpu.execute: 1010620000;f;i;239
1010620000: system.cpu.execute: 1010620000;s;i;240
1014652500: system.cpu.execute: 1014652500;f;i;240
1014653750: system.cpu.execute: 1014653750;s;i;241
1018731250: system.cpu.execute: 1018731250;f;i;241
1018731875: system.cpu.execute: 1018731875;s;i;242
1022761250: system.cpu.execute: 1022761250;f;i;242
1022761250: system.cpu.execute: 1022761250;s;i;243
1026840000: system.cpu.execute: 1026840000;f;i;243
1026840625: system.cpu.execute: 1026840625;s;i;244
1030879375: system.cpu.execute: 1030879375;f;i;244
1030880000: system.cpu.execute: 1030880000;s;i;245
1034956875: system.cpu.execute: 1034956875;f;i;245
1034957500: system.cpu.execute: 1034957500;s;i;246
1039036250: system.cpu.execute: 1039036250;f;i;246
1039036250: system.cpu.execute: 1039036250;s;i;247
1043069375: system.cpu.execute: 1043069375;f;i;247
1043070000: system.cpu.execute: 1043070000;s;i;248
1047147500: system.cpu.execute: 1047147500;f;i;248
1047148125: system.cpu.execute: 1047148125;s;i;249
1051177500: system.cpu.execute: 1051177500;f;i;249
1051177500: system.cpu.execute: 1051177500;s;i;250
1055260000: system.cpu.execute: 1055260000;f;i;250
1055260625: system.cpu.execute: 1055260625;s;i;251
1059294375: system.cpu.execute: 1059294375;f;i;251
1059294375: system.cpu.execute: 1059294375;s;i;252
1063373750: system.cpu.execute: 1063373750;f;i;252
1063373750: system.cpu.execute: 1063373750;s;i;253
1067408125: system.cpu.execute: 1067408125;f;i;253
1067408125: system.cpu.execute: 1067408125;s;i;254
1071488750: system.cpu.execute: 1071488750;f;i;254
1071490000: system.cpu.execute: 1071490000;s;i;255
1075514375: system.cpu.execute: 1075514375;f;i;255
1075515000: system.cpu.execute: 1075515000;s;i;256
1079597500: system.cpu.execute: 1079597500;f;i;256
1079597500: system.cpu.execute: 1079597500;s;i;257
1083631875: system.cpu.execute: 1083631875;f;i;257
1083631875: system.cpu.execute: 1083631875;s;i;258
1087710625: system.cpu.execute: 1087710625;f;i;258
1087711250: system.cpu.execute: 1087711250;s;i;259
1091744375: system.cpu.execute: 1091744375;f;i;259
1091745000: system.cpu.execute: 1091745000;s;i;260
1095827500: system.cpu.execute: 1095827500;f;i;260
1095828125: system.cpu.execute: 1095828125;s;i;261
1099875000: system.cpu.execute: 1099875000;f;i;261
1099875625: system.cpu.execute: 1099875625;s;i;262
1103934375: system.cpu.execute: 1103934375;f;i;262
1103935000: system.cpu.execute: 1103935000;s;i;263
1108013750: system.cpu.execute: 1108013750;f;i;263
1108013750: system.cpu.execute: 1108013750;s;i;264
1112048125: system.cpu.execute: 1112048125;f;i;264
1112048125: system.cpu.execute: 1112048125;s;i;265
1116130625: system.cpu.execute: 1116130625;f;i;265
1116130625: system.cpu.execute: 1116130625;s;i;266
1120165000: system.cpu.execute: 1120165000;f;i;266
1120165000: system.cpu.execute: 1120165000;s;i;267
1124244375: system.cpu.execute: 1124244375;f;i;267
1124244375: system.cpu.execute: 1124244375;s;i;268
1128271875: system.cpu.execute: 1128271875;f;i;268
1128271875: system.cpu.execute: 1128271875;s;i;269
1132350625: system.cpu.execute: 1132350625;f;i;269
1132351250: system.cpu.execute: 1132351250;s;i;270
1136385000: system.cpu.execute: 1136385000;f;i;270
1136385625: system.cpu.execute: 1136385625;s;i;271
1140468125: system.cpu.execute: 1140468125;f;i;271
1140468125: system.cpu.execute: 1140468125;s;i;272
1144501875: system.cpu.execute: 1144501875;f;i;272
1144502500: system.cpu.execute: 1144502500;s;i;273
1148581250: system.cpu.execute: 1148581250;f;i;273
1148581875: system.cpu.execute: 1148581875;s;i;274
1152609375: system.cpu.execute: 1152609375;f;i;274
1152610000: system.cpu.execute: 1152610000;s;i;275
1156688750: system.cpu.execute: 1156688750;f;i;275
1156689375: system.cpu.execute: 1156689375;s;i;276
1160730625: system.cpu.execute: 1160730625;f;i;276
1160730625: system.cpu.execute: 1160730625;s;i;277
1164805000: system.cpu.execute: 1164805000;f;i;277
1164805625: system.cpu.execute: 1164805625;s;i;278
1168884375: system.cpu.execute: 1168884375;f;i;278
1168884375: system.cpu.execute: 1168884375;s;i;279
1172918750: system.cpu.execute: 1172918750;f;i;279
1172918750: system.cpu.execute: 1172918750;s;i;280
1177001250: system.cpu.execute: 1177001250;f;i;280
1177001250: system.cpu.execute: 1177001250;s;i;281
1181026250: system.cpu.execute: 1181026250;f;i;281
1181026875: system.cpu.execute: 1181026875;s;i;282
1185108125: system.cpu.execute: 1185108125;f;i;282
1185108125: system.cpu.execute: 1185108125;s;i;283
1189142500: system.cpu.execute: 1189142500;f;i;283
1189142500: system.cpu.execute: 1189142500;s;i;284
1193221250: system.cpu.execute: 1193221250;f;i;284
1193221875: system.cpu.execute: 1193221875;s;i;285
1197255625: system.cpu.execute: 1197255625;f;i;285
1197256250: system.cpu.execute: 1197256250;s;i;286
1201338125: system.cpu.execute: 1201338125;f;i;286
1201338750: system.cpu.execute: 1201338750;s;i;287
1205363750: system.cpu.execute: 1205363750;f;i;287
1205364375: system.cpu.execute: 1205364375;s;i;288
1209445625: system.cpu.execute: 1209445625;f;i;288
1209446250: system.cpu.execute: 1209446250;s;i;289
1213479375: system.cpu.execute: 1213479375;f;i;289
1213480000: system.cpu.execute: 1213480000;s;i;290
1217558750: system.cpu.execute: 1217558750;f;i;290
1217558750: system.cpu.execute: 1217558750;s;i;291
1221595625: system.cpu.execute: 1221595625;f;i;291
1221596250: system.cpu.execute: 1221596250;s;i;292
1225675625: system.cpu.execute: 1225675625;f;i;292
1225675625: system.cpu.execute: 1225675625;s;i;293
1229751250: system.cpu.execute: 1229751250;f;i;293
1229753125: system.cpu.execute: 1229753125;s;i;294
1233784375: system.cpu.execute: 1233784375;f;i;294
1233785000: system.cpu.execute: 1233785000;s;i;295
1237862500: system.cpu.execute: 1237862500;f;i;295
1237863125: system.cpu.execute: 1237863125;s;i;296
1241895625: system.cpu.execute: 1241895625;f;i;296
1241896250: system.cpu.execute: 1241896250;s;i;297
1245978750: system.cpu.execute: 1245978750;f;i;297
1245978750: system.cpu.execute: 1245978750;s;i;298
1250012500: system.cpu.execute: 1250012500;f;i;298
1250013125: system.cpu.execute: 1250013125;s;i;299
1254091875: system.cpu.execute: 1254091875;f;i;299
1254092500: system.cpu.execute: 1254092500;s;i;300
1258123750: system.cpu.execute: 1258123750;f;i;300
1258124375: system.cpu.execute: 1258124375;s;i;301
1262200000: system.cpu.execute: 1262200000;f;i;301
1262200625: system.cpu.execute: 1262200625;s;i;302
1266233125: system.cpu.execute: 1266233125;f;i;302
1266233125: system.cpu.execute: 1266233125;s;i;303
1270315625: system.cpu.execute: 1270315625;f;i;303
1270316250: system.cpu.execute: 1270316250;s;i;304
1274350000: system.cpu.execute: 1274350000;f;i;304
1274350000: system.cpu.execute: 1274350000;s;i;305
1278429375: system.cpu.execute: 1278429375;f;i;305
1278429375: system.cpu.execute: 1278429375;s;i;306
1282461875: system.cpu.execute: 1282461875;f;i;306
1282462500: system.cpu.execute: 1282462500;s;i;307
1286539375: system.cpu.execute: 1286539375;f;i;307
1286540000: system.cpu.execute: 1286540000;s;i;308
1290591250: system.cpu.execute: 1290591250;f;i;308
1290591250: system.cpu.execute: 1290591250;s;i;309
1294653125: system.cpu.execute: 1294653125;f;i;309
1294653125: system.cpu.execute: 1294653125;s;i;310
1298731875: system.cpu.execute: 1298731875;f;i;310
1298732500: system.cpu.execute: 1298732500;s;i;311
1302766250: system.cpu.execute: 1302766250;f;i;311
1302766875: system.cpu.execute: 1302766875;s;i;312
1306848750: system.cpu.execute: 1306848750;f;i;312
1306849375: system.cpu.execute: 1306849375;s;i;313
1310878125: system.cpu.execute: 1310878125;f;i;313
1310878125: system.cpu.execute: 1310878125;s;i;314
1314960000: system.cpu.execute: 1314960000;f;i;314
1314960625: system.cpu.execute: 1314960625;s;i;315
1318990000: system.cpu.execute: 1318990000;f;i;315
1318990625: system.cpu.execute: 1318990625;s;i;316
1323069375: system.cpu.execute: 1323069375;f;i;316
1323069375: system.cpu.execute: 1323069375;s;i;317
1327103750: system.cpu.execute: 1327103750;f;i;317
1327103750: system.cpu.execute: 1327103750;s;i;318
1331186250: system.cpu.execute: 1331186250;f;i;318
1331186250: system.cpu.execute: 1331186250;s;i;319
1335220625: system.cpu.execute: 1335220625;f;i;319
1335220625: system.cpu.execute: 1335220625;s;i;320
1339298125: system.cpu.execute: 1339298125;f;i;320
1339298750: system.cpu.execute: 1339298750;s;i;321
1343327500: system.cpu.execute: 1343327500;f;i;321
1343327500: system.cpu.execute: 1343327500;s;i;322
1347406250: system.cpu.execute: 1347406250;f;i;322
1347406875: system.cpu.execute: 1347406875;s;i;323
1351446250: system.cpu.execute: 1351446250;f;i;323
1351446875: system.cpu.execute: 1351446875;s;i;324
1355523125: system.cpu.execute: 1355523125;f;i;324
1355523750: system.cpu.execute: 1355523750;s;i;325
1359602500: system.cpu.execute: 1359602500;f;i;325
1359602500: system.cpu.execute: 1359602500;s;i;326
1363636875: system.cpu.execute: 1363636875;f;i;326
1363637500: system.cpu.execute: 1363637500;s;i;327
1367714375: system.cpu.execute: 1367714375;f;i;327
1367714375: system.cpu.execute: 1367714375;s;i;328
1371743750: system.cpu.execute: 1371743750;f;i;328
1371743750: system.cpu.execute: 1371743750;s;i;329
1375826250: system.cpu.execute: 1375826250;f;i;329
1375826875: system.cpu.execute: 1375826875;s;i;330
1379860625: system.cpu.execute: 1379860625;f;i;330
1379861250: system.cpu.execute: 1379861250;s;i;331
1383940000: system.cpu.execute: 1383940000;f;i;331
1383940000: system.cpu.execute: 1383940000;s;i;332
1387974375: system.cpu.execute: 1387974375;f;i;332
1387974375: system.cpu.execute: 1387974375;s;i;333
1392056875: system.cpu.execute: 1392056875;f;i;333
1392056875: system.cpu.execute: 1392056875;s;i;334
1396080625: system.cpu.execute: 1396080625;f;i;334
1396081250: system.cpu.execute: 1396081250;s;i;335
1400163750: system.cpu.execute: 1400163750;f;i;335
1400163750: system.cpu.execute: 1400163750;s;i;336
1404198125: system.cpu.execute: 1404198125;f;i;336
1404198125: system.cpu.execute: 1404198125;s;i;337
1408276875: system.cpu.execute: 1408276875;f;i;337
1408277500: system.cpu.execute: 1408277500;s;i;338
1412311250: system.cpu.execute: 1412311250;f;i;338
1412311875: system.cpu.execute: 1412311875;s;i;339
1416393750: system.cpu.execute: 1416393750;f;i;339
1416394375: system.cpu.execute: 1416394375;s;i;340
1420442500: system.cpu.execute: 1420442500;f;i;340
1420445000: system.cpu.execute: 1420445000;s;i;341
1424500625: system.cpu.execute: 1424500625;f;i;341
1424501250: system.cpu.execute: 1424501250;s;i;342
1428580000: system.cpu.execute: 1428580000;f;i;342
1428580000: system.cpu.execute: 1428580000;s;i;343
1432614375: system.cpu.execute: 1432614375;f;i;343
1432614375: system.cpu.execute: 1432614375;s;i;344
1436696875: system.cpu.execute: 1436696875;f;i;344
1436697500: system.cpu.execute: 1436697500;s;i;345
1440731250: system.cpu.execute: 1440731250;f;i;345
1440731250: system.cpu.execute: 1440731250;s;i;346
1444810625: system.cpu.execute: 1444810625;f;i;346
1444810625: system.cpu.execute: 1444810625;s;i;347
1448838125: system.cpu.execute: 1448838125;f;i;347
1448838125: system.cpu.execute: 1448838125;s;i;348
1452916875: system.cpu.execute: 1452916875;f;i;348
1452917500: system.cpu.execute: 1452917500;s;i;349
1456951250: system.cpu.execute: 1456951250;f;i;349
1456951875: system.cpu.execute: 1456951875;s;i;350
1461034375: system.cpu.execute: 1461034375;f;i;350
1461034375: system.cpu.execute: 1461034375;s;i;351
1465068125: system.cpu.execute: 1465068125;f;i;351
1465068750: system.cpu.execute: 1465068750;s;i;352
1469147500: system.cpu.execute: 1469147500;f;i;352
1469148125: system.cpu.execute: 1469148125;s;i;353
1473176875: system.cpu.execute: 1473176875;f;i;353
1473177500: system.cpu.execute: 1473177500;s;i;354
1477255625: system.cpu.execute: 1477255625;f;i;354
1477255625: system.cpu.execute: 1477255625;s;i;355
1481296875: system.cpu.execute: 1481296875;f;i;355
1481296875: system.cpu.execute: 1481296875;s;i;356
1485371250: system.cpu.execute: 1485371250;f;i;356
1485371875: system.cpu.execute: 1485371875;s;i;357
1489450625: system.cpu.execute: 1489450625;f;i;357
1489450625: system.cpu.execute: 1489450625;s;i;358
1493485000: system.cpu.execute: 1493485000;f;i;358
1493485000: system.cpu.execute: 1493485000;s;i;359
1497567500: system.cpu.execute: 1497567500;f;i;359
1497567500: system.cpu.execute: 1497567500;s;i;360
1501592500: system.cpu.execute: 1501592500;f;i;360
1501593125: system.cpu.execute: 1501593125;s;i;361
1505674375: system.cpu.execute: 1505674375;f;i;361
1505674375: system.cpu.execute: 1505674375;s;i;362
1509708750: system.cpu.execute: 1509708750;f;i;362
1509708750: system.cpu.execute: 1509708750;s;i;363
1513787500: system.cpu.execute: 1513787500;f;i;363
1513788125: system.cpu.execute: 1513788125;s;i;364
1517821875: system.cpu.execute: 1517821875;f;i;364
1517822500: system.cpu.execute: 1517822500;s;i;365
1521904375: system.cpu.execute: 1521904375;f;i;365
1521905000: system.cpu.execute: 1521905000;s;i;366
1525931250: system.cpu.execute: 1525931250;f;i;366
1525931875: system.cpu.execute: 1525931875;s;i;367
1530013125: system.cpu.execute: 1530013125;f;i;367
1530013750: system.cpu.execute: 1530013750;s;i;368
1534045625: system.cpu.execute: 1534045625;f;i;368
1534046250: system.cpu.execute: 1534046250;s;i;369
1538125000: system.cpu.execute: 1538125000;f;i;369
1538125000: system.cpu.execute: 1538125000;s;i;370
1542161875: system.cpu.execute: 1542161875;f;i;370
1542162500: system.cpu.execute: 1542162500;s;i;371
1546241875: system.cpu.execute: 1546241875;f;i;371
1546241875: system.cpu.execute: 1546241875;s;i;372
1550320625: system.cpu.execute: 1550320625;f;i;372
1550321250: system.cpu.execute: 1550321250;s;i;373
1554351875: system.cpu.execute: 1554351875;f;i;373
1554352500: system.cpu.execute: 1554352500;s;i;374
1558428750: system.cpu.execute: 1558428750;f;i;374
1558429375: system.cpu.execute: 1558429375;s;i;375
1562461875: system.cpu.execute: 1562461875;f;i;375
1562462500: system.cpu.execute: 1562462500;s;i;376
1566545000: system.cpu.execute: 1566545000;f;i;376
1566545000: system.cpu.execute: 1566545000;s;i;377
1570578750: system.cpu.execute: 1570578750;f;i;377
1570579375: system.cpu.execute: 1570579375;s;i;378
1574658125: system.cpu.execute: 1574658125;f;i;378
1574658750: system.cpu.execute: 1574658750;s;i;379
1578690625: system.cpu.execute: 1578690625;f;i;379
1578690625: system.cpu.execute: 1578690625;s;i;380
1582767500: system.cpu.execute: 1582767500;f;i;380
1582768125: system.cpu.execute: 1582768125;s;i;381
1586799375: system.cpu.execute: 1586799375;f;i;381
1586799375: system.cpu.execute: 1586799375;s;i;382
1590668125: system.cpu.execute: 1590668125;f;i;382
1590668125: system.cpu.execute: 1590668125;f;e;0
1590668125: system.cpu.execute: 1590668125;s;i;382
1593197500: system.cpu.execute: 1593197500;f;i;382
1593198125: system.cpu.execute: 1593198125;s;i;383
1605701250: system.cpu.execute: 1605701250;f;i;383
1605701875: system.cpu.execute: 1605701875;s;i;384
1611857500: system.cpu.execute: 1611857500;f;i;384
