  85000: system.cpu.execute: 85000;s;i;0
27242500: system.cpu.execute: 27242500;f;i;0
27242500: system.cpu.execute: 27242500;s;f;0
27618750: system.cpu.execute: 27618750;f;f;0
27618750: system.cpu.execute: 27618750;s;d;0
27618750: system.cpu.execute: 27618750;s;f;0
39633750: system.cpu.execute: 39633750;f;f;0
39633750: system.cpu.execute: 39633750;s;i;1
43623125: system.cpu.execute: 43623125;f;i;1
43623125: system.cpu.execute: 43623125;s;i;2
47548125: system.cpu.execute: 47548125;f;i;2
47548750: system.cpu.execute: 47548750;s;i;3
51539375: system.cpu.execute: 51539375;f;i;3
51539375: system.cpu.execute: 51539375;s;i;4
55528750: system.cpu.execute: 55528750;f;i;4
55528750: system.cpu.execute: 55528750;s;i;5
59450625: system.cpu.execute: 59450625;f;i;5
59451250: system.cpu.execute: 59451250;s;i;6
63440000: system.cpu.execute: 63440000;f;i;6
63440625: system.cpu.execute: 63440625;s;i;7
67384375: system.cpu.execute: 67384375;f;i;7
67384375: system.cpu.execute: 67384375;s;i;8
71358125: system.cpu.execute: 71358125;f;i;8
71358125: system.cpu.execute: 71358125;s;i;9
75347500: system.cpu.execute: 75347500;f;i;9
75347500: system.cpu.execute: 75347500;s;i;10
79270000: system.cpu.execute: 79270000;f;i;10
79270625: system.cpu.execute: 79270625;s;i;11
83260000: system.cpu.execute: 83260000;f;i;11
83260625: system.cpu.execute: 83260625;s;i;12
87249375: system.cpu.execute: 87249375;f;i;12
87250000: system.cpu.execute: 87250000;s;i;13
91175000: system.cpu.execute: 91175000;f;i;13
91175625: system.cpu.execute: 91175625;s;i;14
95164375: system.cpu.execute: 95164375;f;i;14
95165000: system.cpu.execute: 95165000;s;i;15
99101875: system.cpu.execute: 99101875;f;i;15
99102500: system.cpu.execute: 99102500;s;i;16
103082500: system.cpu.execute: 103082500;f;i;16
103082500: system.cpu.execute: 103082500;s;i;17
107071875: system.cpu.execute: 107071875;f;i;17
107071875: system.cpu.execute: 107071875;s;i;18
110993750: system.cpu.execute: 110993750;f;i;18
110993750: system.cpu.execute: 110993750;s;i;19
114983125: system.cpu.execute: 114983125;f;i;19
114983125: system.cpu.execute: 114983125;s;i;20
118972500: system.cpu.execute: 118972500;f;i;20
118973125: system.cpu.execute: 118973125;s;i;21
122899375: system.cpu.execute: 122899375;f;i;21
122899375: system.cpu.execute: 122899375;s;i;22
126888750: system.cpu.execute: 126888750;f;i;22
126888750: system.cpu.execute: 126888750;s;i;23
130818750: system.cpu.execute: 130818750;f;i;23
130818750: system.cpu.execute: 130818750;s;i;24
134801250: system.cpu.execute: 134801250;f;i;24
134801250: system.cpu.execute: 134801250;s;i;25
138790625: system.cpu.execute: 138790625;f;i;25
138790625: system.cpu.execute: 138790625;s;i;26
142718125: system.cpu.execute: 142718125;f;i;26
142718125: system.cpu.execute: 142718125;s;i;27
146707500: system.cpu.execute: 146707500;f;i;27
146707500: system.cpu.execute: 146707500;s;i;28
150696250: system.cpu.execute: 150696250;f;i;28
150696875: system.cpu.execute: 150696875;s;i;29
154621875: system.cpu.execute: 154621875;f;i;29
154621875: system.cpu.execute: 154621875;s;i;30
158613125: system.cpu.execute: 158613125;f;i;30
158613125: system.cpu.execute: 158613125;s;i;31
162535000: system.cpu.execute: 162535000;f;i;31
162535625: system.cpu.execute: 162535625;s;i;32
166524375: system.cpu.execute: 166524375;f;i;32
166525000: system.cpu.execute: 166525000;s;i;33
170513750: system.cpu.execute: 170513750;f;i;33
170514375: system.cpu.execute: 170514375;s;i;34
174442500: system.cpu.execute: 174442500;f;i;34
174442500: system.cpu.execute: 174442500;s;i;35
178431875: system.cpu.execute: 178431875;f;i;35
178431875: system.cpu.execute: 178431875;s;i;36
182420625: system.cpu.execute: 182420625;f;i;36
182420625: system.cpu.execute: 182420625;s;i;37
186343750: system.cpu.execute: 186343750;f;i;37
186344375: system.cpu.execute: 186344375;s;i;38
190333125: system.cpu.execute: 190333125;f;i;38
190333750: system.cpu.execute: 190333750;s;i;39
194259375: system.cpu.execute: 194259375;f;i;39
194259375: system.cpu.execute: 194259375;s;i;40
198248750: system.cpu.execute: 198248750;f;i;40
198249375: system.cpu.execute: 198249375;s;i;41
202238125: system.cpu.execute: 202238125;f;i;41
202238750: system.cpu.execute: 202238750;s;i;42
206165000: system.cpu.execute: 206165000;f;i;42
206165625: system.cpu.execute: 206165625;s;i;43
210156250: system.cpu.execute: 210156250;f;i;43
210156250: system.cpu.execute: 210156250;s;i;44
214124375: system.cpu.execute: 214124375;f;i;44
214126250: system.cpu.execute: 214126250;s;i;45
218067500: system.cpu.execute: 218067500;f;i;45
218067500: system.cpu.execute: 218067500;s;i;46
222056875: system.cpu.execute: 222056875;f;i;46
222056875: system.cpu.execute: 222056875;s;i;47
225983750: system.cpu.execute: 225983750;f;i;47
225983750: system.cpu.execute: 225983750;s;i;48
229973125: system.cpu.execute: 229973125;f;i;48
229973125: system.cpu.execute: 229973125;s;i;49
233962500: system.cpu.execute: 233962500;f;i;49
233962500: system.cpu.execute: 233962500;s;i;50
237884375: system.cpu.execute: 237884375;f;i;50
237885000: system.cpu.execute: 237885000;s;i;51
241875000: system.cpu.execute: 241875000;f;i;51
241875000: system.cpu.execute: 241875000;s;i;52
245831875: system.cpu.execute: 245831875;f;i;52
245833750: system.cpu.execute: 245833750;s;i;53
249791875: system.cpu.execute: 249791875;f;i;53
249791875: system.cpu.execute: 249791875;s;i;54
253781250: system.cpu.execute: 253781250;f;i;54
253781250: system.cpu.execute: 253781250;s;i;55
257705625: system.cpu.execute: 257705625;f;i;55
257705625: system.cpu.execute: 257705625;s;i;56
261695625: system.cpu.execute: 261695625;f;i;56
261695625: system.cpu.execute: 261695625;s;i;57
265686875: system.cpu.execute: 265686875;f;i;57
265686875: system.cpu.execute: 265686875;s;i;58
269608750: system.cpu.execute: 269608750;f;i;58
269609375: system.cpu.execute: 269609375;s;i;59
273598125: system.cpu.execute: 273598125;f;i;59
273598750: system.cpu.execute: 273598750;s;i;60
277540000: system.cpu.execute: 277540000;f;i;60
277540625: system.cpu.execute: 277540625;s;i;61
281516250: system.cpu.execute: 281516250;f;i;61
281516250: system.cpu.execute: 281516250;s;i;62
285505625: system.cpu.execute: 285505625;f;i;62
285505625: system.cpu.execute: 285505625;s;i;63
289428125: system.cpu.execute: 289428125;f;i;63
289428125: system.cpu.execute: 289428125;s;i;64
293417500: system.cpu.execute: 293417500;f;i;64
293418125: system.cpu.execute: 293418125;s;i;65
297406875: system.cpu.execute: 297406875;f;i;65
297407500: system.cpu.execute: 297407500;s;i;66
301333125: system.cpu.execute: 301333125;f;i;66
301333125: system.cpu.execute: 301333125;s;i;67
305322500: system.cpu.execute: 305322500;f;i;67
305323125: system.cpu.execute: 305323125;s;i;68
309256875: system.cpu.execute: 309256875;f;i;68
309256875: system.cpu.execute: 309256875;s;i;69
313236875: system.cpu.execute: 313236875;f;i;69
313238750: system.cpu.execute: 313238750;s;i;70
317229375: system.cpu.execute: 317229375;f;i;70
317230000: system.cpu.execute: 317230000;s;i;71
321151875: system.cpu.execute: 321151875;f;i;71
321151875: system.cpu.execute: 321151875;s;i;72
325141250: system.cpu.execute: 325141250;f;i;72
325141250: system.cpu.execute: 325141250;s;i;73
329130625: system.cpu.execute: 329130625;f;i;73
329130625: system.cpu.execute: 329130625;s;i;74
333057500: system.cpu.execute: 333057500;f;i;74
333057500: system.cpu.execute: 333057500;s;i;75
337046875: system.cpu.execute: 337046875;f;i;75
337046875: system.cpu.execute: 337046875;s;i;76
340973125: system.cpu.execute: 340973125;f;i;76
340973750: system.cpu.execute: 340973750;s;i;77
344958125: system.cpu.execute: 344958125;f;i;77
344958750: system.cpu.execute: 344958750;s;i;78
348948750: system.cpu.execute: 348948750;f;i;78
348948750: system.cpu.execute: 348948750;s;i;79
352876250: system.cpu.execute: 352876250;f;i;79
352876250: system.cpu.execute: 352876250;s;i;80
356865625: system.cpu.execute: 356865625;f;i;80
356865625: system.cpu.execute: 356865625;s;i;81
360854375: system.cpu.execute: 360854375;f;i;81
360855000: system.cpu.execute: 360855000;s;i;82
364779375: system.cpu.execute: 364779375;f;i;82
364779375: system.cpu.execute: 364779375;s;i;83
368769375: system.cpu.execute: 368769375;f;i;83
368769375: system.cpu.execute: 368769375;s;i;84
372693125: system.cpu.execute: 372693125;f;i;84
372693750: system.cpu.execute: 372693750;s;i;85
376682500: system.cpu.execute: 376682500;f;i;85
376683125: system.cpu.execute: 376683125;s;i;86
380671875: system.cpu.execute: 380671875;f;i;86
380672500: system.cpu.execute: 380672500;s;i;87
384600625: system.cpu.execute: 384600625;f;i;87
384600625: system.cpu.execute: 384600625;s;i;88
388590000: system.cpu.execute: 388590000;f;i;88
388590000: system.cpu.execute: 388590000;s;i;89
392578750: system.cpu.execute: 392578750;f;i;89
392578750: system.cpu.execute: 392578750;s;i;90
396501875: system.cpu.execute: 396501875;f;i;90
396501875: system.cpu.execute: 396501875;s;i;91
400491250: system.cpu.execute: 400491250;f;i;91
400491250: system.cpu.execute: 400491250;s;i;92
404417500: system.cpu.execute: 404417500;f;i;92
404417500: system.cpu.execute: 404417500;s;i;93
408406875: system.cpu.execute: 408406875;f;i;93
408406875: system.cpu.execute: 408406875;s;i;94
412396250: system.cpu.execute: 412396250;f;i;94
412396875: system.cpu.execute: 412396875;s;i;95
416320625: system.cpu.execute: 416320625;f;i;95
416321250: system.cpu.execute: 416321250;s;i;96
420310625: system.cpu.execute: 420310625;f;i;96
420311250: system.cpu.execute: 420311250;s;i;97
424271250: system.cpu.execute: 424271250;f;i;97
424271875: system.cpu.execute: 424271875;s;i;98
428225625: system.cpu.execute: 428225625;f;i;98
428225625: system.cpu.execute: 428225625;s;i;99
432215000: system.cpu.execute: 432215000;f;i;99
432215000: system.cpu.execute: 432215000;s;i;100
436141875: system.cpu.execute: 436141875;f;i;100
436141875: system.cpu.execute: 436141875;s;i;101
440131250: system.cpu.execute: 440131250;f;i;101
440131250: system.cpu.execute: 440131250;s;i;102
444120625: system.cpu.execute: 444120625;f;i;102
444120625: system.cpu.execute: 444120625;s;i;103
448042500: system.cpu.execute: 448042500;f;i;103
448043125: system.cpu.execute: 448043125;s;i;104
452031875: system.cpu.execute: 452031875;f;i;104
452032500: system.cpu.execute: 452032500;s;i;105
455978750: system.cpu.execute: 455978750;f;i;105
455979375: system.cpu.execute: 455979375;s;i;106
459950000: system.cpu.execute: 459950000;f;i;106
459950000: system.cpu.execute: 459950000;s;i;107
463939375: system.cpu.execute: 463939375;f;i;107
463939375: system.cpu.execute: 463939375;s;i;108
467862500: system.cpu.execute: 467862500;f;i;108
467863125: system.cpu.execute: 467863125;s;i;109
471852500: system.cpu.execute: 471852500;f;i;109
471853125: system.cpu.execute: 471853125;s;i;110
475843125: system.cpu.execute: 475843125;f;i;110
475843125: system.cpu.execute: 475843125;s;i;111
479766875: system.cpu.execute: 479766875;f;i;111
479767500: system.cpu.execute: 479767500;s;i;112
483756250: system.cpu.execute: 483756250;f;i;112
483756875: system.cpu.execute: 483756875;s;i;113
487695000: system.cpu.execute: 487695000;f;i;113
487696250: system.cpu.execute: 487696250;s;i;114
491674375: system.cpu.execute: 491674375;f;i;114
491674375: system.cpu.execute: 491674375;s;i;115
495663750: system.cpu.execute: 495663750;f;i;115
495663750: system.cpu.execute: 495663750;s;i;116
499585625: system.cpu.execute: 499585625;f;i;116
499586250: system.cpu.execute: 499586250;s;i;117
503575625: system.cpu.execute: 503575625;f;i;117
503575625: system.cpu.execute: 503575625;s;i;118
507565000: system.cpu.execute: 507565000;f;i;118
507565000: system.cpu.execute: 507565000;s;i;119
511491250: system.cpu.execute: 511491250;f;i;119
511491250: system.cpu.execute: 511491250;s;i;120
515480625: system.cpu.execute: 515480625;f;i;120
515480625: system.cpu.execute: 515480625;s;i;121
519413125: system.cpu.execute: 519413125;f;i;121
519413125: system.cpu.execute: 519413125;s;i;122
523393750: system.cpu.execute: 523393750;f;i;122
523394375: system.cpu.execute: 523394375;s;i;123
527384375: system.cpu.execute: 527384375;f;i;123
527385000: system.cpu.execute: 527385000;s;i;124
531310000: system.cpu.execute: 531310000;f;i;124
531310000: system.cpu.execute: 531310000;s;i;125
535299375: system.cpu.execute: 535299375;f;i;125
535299375: system.cpu.execute: 535299375;s;i;126
539288125: system.cpu.execute: 539288125;f;i;126
539288750: system.cpu.execute: 539288750;s;i;127
543215625: system.cpu.execute: 543215625;f;i;127
543215625: system.cpu.execute: 543215625;s;i;128
547205000: system.cpu.execute: 547205000;f;i;128
547205000: system.cpu.execute: 547205000;s;i;129
551128750: system.cpu.execute: 551128750;f;i;129
551129375: system.cpu.execute: 551129375;s;i;130
555116250: system.cpu.execute: 555116250;f;i;130
555116875: system.cpu.execute: 555116875;s;i;131
559105625: system.cpu.execute: 559105625;f;i;131
559106250: system.cpu.execute: 559106250;s;i;132
563034375: system.cpu.execute: 563034375;f;i;132
563034375: system.cpu.execute: 563034375;s;i;133
567023750: system.cpu.execute: 567023750;f;i;133
567023750: system.cpu.execute: 567023750;s;i;134
571012500: system.cpu.execute: 571012500;f;i;134
571012500: system.cpu.execute: 571012500;s;i;135
574936250: system.cpu.execute: 574936250;f;i;135
574936875: system.cpu.execute: 574936875;s;i;136
578925625: system.cpu.execute: 578925625;f;i;136
578926250: system.cpu.execute: 578926250;s;i;137
582851250: system.cpu.execute: 582851250;f;i;137
582851875: system.cpu.execute: 582851875;s;i;138
586840625: system.cpu.execute: 586840625;f;i;138
586841250: system.cpu.execute: 586841250;s;i;139
590830000: system.cpu.execute: 590830000;f;i;139
590830625: system.cpu.execute: 590830625;s;i;140
594758750: system.cpu.execute: 594758750;f;i;140
594758750: system.cpu.execute: 594758750;s;i;141
598748125: system.cpu.execute: 598748125;f;i;141
598748125: system.cpu.execute: 598748125;s;i;142
602731875: system.cpu.execute: 602731875;f;i;142
602733750: system.cpu.execute: 602733750;s;i;143
606659375: system.cpu.execute: 606659375;f;i;143
606660000: system.cpu.execute: 606660000;s;i;144
610649375: system.cpu.execute: 610649375;f;i;144
610649375: system.cpu.execute: 610649375;s;i;145
614575625: system.cpu.execute: 614575625;f;i;145
614575625: system.cpu.execute: 614575625;s;i;146
618565000: system.cpu.execute: 618565000;f;i;146
618565000: system.cpu.execute: 618565000;s;i;147
622554375: system.cpu.execute: 622554375;f;i;147
622554375: system.cpu.execute: 622554375;s;i;148
626477500: system.cpu.execute: 626477500;f;i;148
626477500: system.cpu.execute: 626477500;s;i;149
630466875: system.cpu.execute: 630466875;f;i;149
630467500: system.cpu.execute: 630467500;s;i;150
634426875: system.cpu.execute: 634426875;f;i;150
634427500: system.cpu.execute: 634427500;s;i;151
638383750: system.cpu.execute: 638383750;f;i;151
638383750: system.cpu.execute: 638383750;s;i;152
642373125: system.cpu.execute: 642373125;f;i;152
642373125: system.cpu.execute: 642373125;s;i;153
646298125: system.cpu.execute: 646298125;f;i;153
646298750: system.cpu.execute: 646298750;s;i;154
650289375: system.cpu.execute: 650289375;f;i;154
650289375: system.cpu.execute: 650289375;s;i;155
654278750: system.cpu.execute: 654278750;f;i;155
654278750: system.cpu.execute: 654278750;s;i;156
658200625: system.cpu.execute: 658200625;f;i;156
658201250: system.cpu.execute: 658201250;s;i;157
662190000: system.cpu.execute: 662190000;f;i;157
662190625: system.cpu.execute: 662190625;s;i;158
666134375: system.cpu.execute: 666134375;f;i;158
666134375: system.cpu.execute: 666134375;s;i;159
670108125: system.cpu.execute: 670108125;f;i;159
670108125: system.cpu.execute: 670108125;s;i;160
674097500: system.cpu.execute: 674097500;f;i;160
674097500: system.cpu.execute: 674097500;s;i;161
678020000: system.cpu.execute: 678020000;f;i;161
678020625: system.cpu.execute: 678020625;s;i;162
682010000: system.cpu.execute: 682010000;f;i;162
682010625: system.cpu.execute: 682010625;s;i;163
685999375: system.cpu.execute: 685999375;f;i;163
686000000: system.cpu.execute: 686000000;s;i;164
689925000: system.cpu.execute: 689925000;f;i;164
689925625: system.cpu.execute: 689925625;s;i;165
693914375: system.cpu.execute: 693914375;f;i;165
693915000: system.cpu.execute: 693915000;s;i;166
697851875: system.cpu.execute: 697851875;f;i;166
697852500: system.cpu.execute: 697852500;s;i;167
701832500: system.cpu.execute: 701832500;f;i;167
701832500: system.cpu.execute: 701832500;s;i;168
705821875: system.cpu.execute: 705821875;f;i;168
705821875: system.cpu.execute: 705821875;s;i;169
709743750: system.cpu.execute: 709743750;f;i;169
709743750: system.cpu.execute: 709743750;s;i;170
713733125: system.cpu.execute: 713733125;f;i;170
713733125: system.cpu.execute: 713733125;s;i;171
717722500: system.cpu.execute: 717722500;f;i;171
717723125: system.cpu.execute: 717723125;s;i;172
721649375: system.cpu.execute: 721649375;f;i;172
721649375: system.cpu.execute: 721649375;s;i;173
725638750: system.cpu.execute: 725638750;f;i;173
725638750: system.cpu.execute: 725638750;s;i;174
729568750: system.cpu.execute: 729568750;f;i;174
729568750: system.cpu.execute: 729568750;s;i;175
733551250: system.cpu.execute: 733551250;f;i;175
733551250: system.cpu.execute: 733551250;s;i;176
737540625: system.cpu.execute: 737540625;f;i;176
737540625: system.cpu.execute: 737540625;s;i;177
741468125: system.cpu.execute: 741468125;f;i;177
741468125: system.cpu.execute: 741468125;s;i;178
745457500: system.cpu.execute: 745457500;f;i;178
745457500: system.cpu.execute: 745457500;s;i;179
749446250: system.cpu.execute: 749446250;f;i;179
749446875: system.cpu.execute: 749446875;s;i;180
753371875: system.cpu.execute: 753371875;f;i;180
753371875: system.cpu.execute: 753371875;s;i;181
757363125: system.cpu.execute: 757363125;f;i;181
757363125: system.cpu.execute: 757363125;s;i;182
761285000: system.cpu.execute: 761285000;f;i;182
761285625: system.cpu.execute: 761285625;s;i;183
765274375: system.cpu.execute: 765274375;f;i;183
765275000: system.cpu.execute: 765275000;s;i;184
769263750: system.cpu.execute: 769263750;f;i;184
769264375: system.cpu.execute: 769264375;s;i;185
773192500: system.cpu.execute: 773192500;f;i;185
773192500: system.cpu.execute: 773192500;s;i;186
777181875: system.cpu.execute: 777181875;f;i;186
777181875: system.cpu.execute: 777181875;s;i;187
781170625: system.cpu.execute: 781170625;f;i;187
781170625: system.cpu.execute: 781170625;s;i;188
785093750: system.cpu.execute: 785093750;f;i;188
785094375: system.cpu.execute: 785094375;s;i;189
789083125: system.cpu.execute: 789083125;f;i;189
789083750: system.cpu.execute: 789083750;s;i;190
793009375: system.cpu.execute: 793009375;f;i;190
793009375: system.cpu.execute: 793009375;s;i;191
796998750: system.cpu.execute: 796998750;f;i;191
796999375: system.cpu.execute: 796999375;s;i;192
800988125: system.cpu.execute: 800988125;f;i;192
800988750: system.cpu.execute: 800988750;s;i;193
804915000: system.cpu.execute: 804915000;f;i;193
804915625: system.cpu.execute: 804915625;s;i;194
808906250: system.cpu.execute: 808906250;f;i;194
808906250: system.cpu.execute: 808906250;s;i;195
812874375: system.cpu.execute: 812874375;f;i;195
812876250: system.cpu.execute: 812876250;s;i;196
816817500: system.cpu.execute: 816817500;f;i;196
816817500: system.cpu.execute: 816817500;s;i;197
820806875: system.cpu.execute: 820806875;f;i;197
820806875: system.cpu.execute: 820806875;s;i;198
824733750: system.cpu.execute: 824733750;f;i;198
824733750: system.cpu.execute: 824733750;s;i;199
828723125: system.cpu.execute: 828723125;f;i;199
828723125: system.cpu.execute: 828723125;s;i;200
832712500: system.cpu.execute: 832712500;f;i;200
832712500: system.cpu.execute: 832712500;s;i;201
836634375: system.cpu.execute: 836634375;f;i;201
836635000: system.cpu.execute: 836635000;s;i;202
840625000: system.cpu.execute: 840625000;f;i;202
840625000: system.cpu.execute: 840625000;s;i;203
844581875: system.cpu.execute: 844581875;f;i;203
844583750: system.cpu.execute: 844583750;s;i;204
848541875: system.cpu.execute: 848541875;f;i;204
848541875: system.cpu.execute: 848541875;s;i;205
852531250: system.cpu.execute: 852531250;f;i;205
852531250: system.cpu.execute: 852531250;s;i;206
856455625: system.cpu.execute: 856455625;f;i;206
856455625: system.cpu.execute: 856455625;s;i;207
860445625: system.cpu.execute: 860445625;f;i;207
860445625: system.cpu.execute: 860445625;s;i;208
864436875: system.cpu.execute: 864436875;f;i;208
864436875: system.cpu.execute: 864436875;s;i;209
868358750: system.cpu.execute: 868358750;f;i;209
868359375: system.cpu.execute: 868359375;s;i;210
872348125: system.cpu.execute: 872348125;f;i;210
872348750: system.cpu.execute: 872348750;s;i;211
876290000: system.cpu.execute: 876290000;f;i;211
876290625: system.cpu.execute: 876290625;s;i;212
880266250: system.cpu.execute: 880266250;f;i;212
880266250: system.cpu.execute: 880266250;s;i;213
884255625: system.cpu.execute: 884255625;f;i;213
884255625: system.cpu.execute: 884255625;s;i;214
888178125: system.cpu.execute: 888178125;f;i;214
888178125: system.cpu.execute: 888178125;s;i;215
892167500: system.cpu.execute: 892167500;f;i;215
892168125: system.cpu.execute: 892168125;s;i;216
896156875: system.cpu.execute: 896156875;f;i;216
896157500: system.cpu.execute: 896157500;s;i;217
900083125: system.cpu.execute: 900083125;f;i;217
900083125: system.cpu.execute: 900083125;s;i;218
904072500: system.cpu.execute: 904072500;f;i;218
904073125: system.cpu.execute: 904073125;s;i;219
908006875: system.cpu.execute: 908006875;f;i;219
908006875: system.cpu.execute: 908006875;s;i;220
911986875: system.cpu.execute: 911986875;f;i;220
911988750: system.cpu.execute: 911988750;s;i;221
915979375: system.cpu.execute: 915979375;f;i;221
915980000: system.cpu.execute: 915980000;s;i;222
919901875: system.cpu.execute: 919901875;f;i;222
919901875: system.cpu.execute: 919901875;s;i;223
923891250: system.cpu.execute: 923891250;f;i;223
923891250: system.cpu.execute: 923891250;s;i;224
927880625: system.cpu.execute: 927880625;f;i;224
927880625: system.cpu.execute: 927880625;s;i;225
931807500: system.cpu.execute: 931807500;f;i;225
931807500: system.cpu.execute: 931807500;s;i;226
935796875: system.cpu.execute: 935796875;f;i;226
935796875: system.cpu.execute: 935796875;s;i;227
939723125: system.cpu.execute: 939723125;f;i;227
939723750: system.cpu.execute: 939723750;s;i;228
943708125: system.cpu.execute: 943708125;f;i;228
943708750: system.cpu.execute: 943708750;s;i;229
947698750: system.cpu.execute: 947698750;f;i;229
947698750: system.cpu.execute: 947698750;s;i;230
951626250: system.cpu.execute: 951626250;f;i;230
951626250: system.cpu.execute: 951626250;s;i;231
955615625: system.cpu.execute: 955615625;f;i;231
955615625: system.cpu.execute: 955615625;s;i;232
959604375: system.cpu.execute: 959604375;f;i;232
959605000: system.cpu.execute: 959605000;s;i;233
963529375: system.cpu.execute: 963529375;f;i;233
963529375: system.cpu.execute: 963529375;s;i;234
967519375: system.cpu.execute: 967519375;f;i;234
967519375: system.cpu.execute: 967519375;s;i;235
971443125: system.cpu.execute: 971443125;f;i;235
971443750: system.cpu.execute: 971443750;s;i;236
975432500: system.cpu.execute: 975432500;f;i;236
975433125: system.cpu.execute: 975433125;s;i;237
979421875: system.cpu.execute: 979421875;f;i;237
979422500: system.cpu.execute: 979422500;s;i;238
983350625: system.cpu.execute: 983350625;f;i;238
983350625: system.cpu.execute: 983350625;s;i;239
987340000: system.cpu.execute: 987340000;f;i;239
987340000: system.cpu.execute: 987340000;s;i;240
991328750: system.cpu.execute: 991328750;f;i;240
991328750: system.cpu.execute: 991328750;s;i;241
995251875: system.cpu.execute: 995251875;f;i;241
995251875: system.cpu.execute: 995251875;s;i;242
999241250: system.cpu.execute: 999241250;f;i;242
999241250: system.cpu.execute: 999241250;s;i;243
1003167500: system.cpu.execute: 1003167500;f;i;243
1003167500: system.cpu.execute: 1003167500;s;i;244
1007156875: system.cpu.execute: 1007156875;f;i;244
1007156875: system.cpu.execute: 1007156875;s;i;245
1011146250: system.cpu.execute: 1011146250;f;i;245
1011146875: system.cpu.execute: 1011146875;s;i;246
1015070625: system.cpu.execute: 1015070625;f;i;246
1015071250: system.cpu.execute: 1015071250;s;i;247
1019060625: system.cpu.execute: 1019060625;f;i;247
1019061250: system.cpu.execute: 1019061250;s;i;248
1023021250: system.cpu.execute: 1023021250;f;i;248
1023021875: system.cpu.execute: 1023021875;s;i;249
1026975625: system.cpu.execute: 1026975625;f;i;249
1026975625: system.cpu.execute: 1026975625;s;i;250
1030965000: system.cpu.execute: 1030965000;f;i;250
1030965000: system.cpu.execute: 1030965000;s;i;251
1034891875: system.cpu.execute: 1034891875;f;i;251
1034891875: system.cpu.execute: 1034891875;s;i;252
1038881250: system.cpu.execute: 1038881250;f;i;252
1038881250: system.cpu.execute: 1038881250;s;i;253
1042870625: system.cpu.execute: 1042870625;f;i;253
1042870625: system.cpu.execute: 1042870625;s;i;254
1046792500: system.cpu.execute: 1046792500;f;i;254
1046793125: system.cpu.execute: 1046793125;s;i;255
1050781875: system.cpu.execute: 1050781875;f;i;255
1050782500: system.cpu.execute: 1050782500;s;i;256
1054728750: system.cpu.execute: 1054728750;f;i;256
1054729375: system.cpu.execute: 1054729375;s;i;257
1058700000: system.cpu.execute: 1058700000;f;i;257
1058700000: system.cpu.execute: 1058700000;s;i;258
1062689375: system.cpu.execute: 1062689375;f;i;258
1062689375: system.cpu.execute: 1062689375;s;i;259
1066612500: system.cpu.execute: 1066612500;f;i;259
1066613125: system.cpu.execute: 1066613125;s;i;260
1070602500: system.cpu.execute: 1070602500;f;i;260
1070603125: system.cpu.execute: 1070603125;s;i;261
1074593125: system.cpu.execute: 1074593125;f;i;261
1074593125: system.cpu.execute: 1074593125;s;i;262
1078516875: system.cpu.execute: 1078516875;f;i;262
1078517500: system.cpu.execute: 1078517500;s;i;263
1082506250: system.cpu.execute: 1082506250;f;i;263
1082506875: system.cpu.execute: 1082506875;s;i;264
1086445000: system.cpu.execute: 1086445000;f;i;264
1086446250: system.cpu.execute: 1086446250;s;i;265
1090424375: system.cpu.execute: 1090424375;f;i;265
1090424375: system.cpu.execute: 1090424375;s;i;266
1094413750: system.cpu.execute: 1094413750;f;i;266
1094413750: system.cpu.execute: 1094413750;s;i;267
1098335625: system.cpu.execute: 1098335625;f;i;267
1098336250: system.cpu.execute: 1098336250;s;i;268
1102325625: system.cpu.execute: 1102325625;f;i;268
1102325625: system.cpu.execute: 1102325625;s;i;269
1106315000: system.cpu.execute: 1106315000;f;i;269
1106315000: system.cpu.execute: 1106315000;s;i;270
1110241250: system.cpu.execute: 1110241250;f;i;270
1110241250: system.cpu.execute: 1110241250;s;i;271
1114230625: system.cpu.execute: 1114230625;f;i;271
1114230625: system.cpu.execute: 1114230625;s;i;272
1118163125: system.cpu.execute: 1118163125;f;i;272
1118163125: system.cpu.execute: 1118163125;s;i;273
1122143750: system.cpu.execute: 1122143750;f;i;273
1122144375: system.cpu.execute: 1122144375;s;i;274
1126134375: system.cpu.execute: 1126134375;f;i;274
1126135000: system.cpu.execute: 1126135000;s;i;275
1130060000: system.cpu.execute: 1130060000;f;i;275
1130060000: system.cpu.execute: 1130060000;s;i;276
1134049375: system.cpu.execute: 1134049375;f;i;276
1134049375: system.cpu.execute: 1134049375;s;i;277
1138038125: system.cpu.execute: 1138038125;f;i;277
1138038750: system.cpu.execute: 1138038750;s;i;278
1141965625: system.cpu.execute: 1141965625;f;i;278
1141965625: system.cpu.execute: 1141965625;s;i;279
1145955000: system.cpu.execute: 1145955000;f;i;279
1145955000: system.cpu.execute: 1145955000;s;i;280
1149878750: system.cpu.execute: 1149878750;f;i;280
1149879375: system.cpu.execute: 1149879375;s;i;281
1153866250: system.cpu.execute: 1153866250;f;i;281
1153866875: system.cpu.execute: 1153866875;s;i;282
1157855625: system.cpu.execute: 1157855625;f;i;282
1157856250: system.cpu.execute: 1157856250;s;i;283
1161784375: system.cpu.execute: 1161784375;f;i;283
1161784375: system.cpu.execute: 1161784375;s;i;284
1165773750: system.cpu.execute: 1165773750;f;i;284
1165773750: system.cpu.execute: 1165773750;s;i;285
1169762500: system.cpu.execute: 1169762500;f;i;285
1169762500: system.cpu.execute: 1169762500;s;i;286
1173686250: system.cpu.execute: 1173686250;f;i;286
1173686875: system.cpu.execute: 1173686875;s;i;287
1177675625: system.cpu.execute: 1177675625;f;i;287
1177676250: system.cpu.execute: 1177676250;s;i;288
1181601250: system.cpu.execute: 1181601250;f;i;288
1181601875: system.cpu.execute: 1181601875;s;i;289
1185590625: system.cpu.execute: 1185590625;f;i;289
1185591250: system.cpu.execute: 1185591250;s;i;290
1189580000: system.cpu.execute: 1189580000;f;i;290
1189580625: system.cpu.execute: 1189580625;s;i;291
1193508750: system.cpu.execute: 1193508750;f;i;291
1193508750: system.cpu.execute: 1193508750;s;i;292
1197498125: system.cpu.execute: 1197498125;f;i;292
1197498125: system.cpu.execute: 1197498125;s;i;293
1201481875: system.cpu.execute: 1201481875;f;i;293
1201483750: system.cpu.execute: 1201483750;s;i;294
1205409375: system.cpu.execute: 1205409375;f;i;294
1205410000: system.cpu.execute: 1205410000;s;i;295
1209399375: system.cpu.execute: 1209399375;f;i;295
1209399375: system.cpu.execute: 1209399375;s;i;296
1213325625: system.cpu.execute: 1213325625;f;i;296
1213325625: system.cpu.execute: 1213325625;s;i;297
1217315000: system.cpu.execute: 1217315000;f;i;297
1217315000: system.cpu.execute: 1217315000;s;i;298
1221304375: system.cpu.execute: 1221304375;f;i;298
1221304375: system.cpu.execute: 1221304375;s;i;299
1225227500: system.cpu.execute: 1225227500;f;i;299
1225227500: system.cpu.execute: 1225227500;s;i;300
1229216875: system.cpu.execute: 1229216875;f;i;300
1229217500: system.cpu.execute: 1229217500;s;i;301
1233176875: system.cpu.execute: 1233176875;f;i;301
1233177500: system.cpu.execute: 1233177500;s;i;302
1237133750: system.cpu.execute: 1237133750;f;i;302
1237133750: system.cpu.execute: 1237133750;s;i;303
1241123125: system.cpu.execute: 1241123125;f;i;303
1241123125: system.cpu.execute: 1241123125;s;i;304
1245048125: system.cpu.execute: 1245048125;f;i;304
1245048750: system.cpu.execute: 1245048750;s;i;305
1249039375: system.cpu.execute: 1249039375;f;i;305
1249039375: system.cpu.execute: 1249039375;s;i;306
1253028750: system.cpu.execute: 1253028750;f;i;306
1253028750: system.cpu.execute: 1253028750;s;i;307
1256950625: system.cpu.execute: 1256950625;f;i;307
1256951250: system.cpu.execute: 1256951250;s;i;308
1260940000: system.cpu.execute: 1260940000;f;i;308
1260940625: system.cpu.execute: 1260940625;s;i;309
1264884375: system.cpu.execute: 1264884375;f;i;309
1264884375: system.cpu.execute: 1264884375;s;i;310
1268858125: system.cpu.execute: 1268858125;f;i;310
1268858125: system.cpu.execute: 1268858125;s;i;311
1272847500: system.cpu.execute: 1272847500;f;i;311
1272847500: system.cpu.execute: 1272847500;s;i;312
1276770000: system.cpu.execute: 1276770000;f;i;312
1276770625: system.cpu.execute: 1276770625;s;i;313
1280760000: system.cpu.execute: 1280760000;f;i;313
1280760625: system.cpu.execute: 1280760625;s;i;314
1284749375: system.cpu.execute: 1284749375;f;i;314
1284750000: system.cpu.execute: 1284750000;s;i;315
1288675000: system.cpu.execute: 1288675000;f;i;315
1288675625: system.cpu.execute: 1288675625;s;i;316
1292664375: system.cpu.execute: 1292664375;f;i;316
1292665000: system.cpu.execute: 1292665000;s;i;317
1296601875: system.cpu.execute: 1296601875;f;i;317
1296602500: system.cpu.execute: 1296602500;s;i;318
1300582500: system.cpu.execute: 1300582500;f;i;318
1300582500: system.cpu.execute: 1300582500;s;i;319
1304571875: system.cpu.execute: 1304571875;f;i;319
1304571875: system.cpu.execute: 1304571875;s;i;320
1308493750: system.cpu.execute: 1308493750;f;i;320
1308493750: system.cpu.execute: 1308493750;s;i;321
1312483125: system.cpu.execute: 1312483125;f;i;321
1312483125: system.cpu.execute: 1312483125;s;i;322
1316472500: system.cpu.execute: 1316472500;f;i;322
1316473125: system.cpu.execute: 1316473125;s;i;323
1320399375: system.cpu.execute: 1320399375;f;i;323
1320399375: system.cpu.execute: 1320399375;s;i;324
1324388750: system.cpu.execute: 1324388750;f;i;324
1324388750: system.cpu.execute: 1324388750;s;i;325
1328318750: system.cpu.execute: 1328318750;f;i;325
1328318750: system.cpu.execute: 1328318750;s;i;326
1332301250: system.cpu.execute: 1332301250;f;i;326
1332301250: system.cpu.execute: 1332301250;s;i;327
1336290625: system.cpu.execute: 1336290625;f;i;327
1336290625: system.cpu.execute: 1336290625;s;i;328
1340218125: system.cpu.execute: 1340218125;f;i;328
1340218125: system.cpu.execute: 1340218125;s;i;329
1344207500: system.cpu.execute: 1344207500;f;i;329
1344207500: system.cpu.execute: 1344207500;s;i;330
1348196250: system.cpu.execute: 1348196250;f;i;330
1348196875: system.cpu.execute: 1348196875;s;i;331
1352121875: system.cpu.execute: 1352121875;f;i;331
1352121875: system.cpu.execute: 1352121875;s;i;332
1356113125: system.cpu.execute: 1356113125;f;i;332
1356113125: system.cpu.execute: 1356113125;s;i;333
1360035000: system.cpu.execute: 1360035000;f;i;333
1360035625: system.cpu.execute: 1360035625;s;i;334
1364024375: system.cpu.execute: 1364024375;f;i;334
1364025000: system.cpu.execute: 1364025000;s;i;335
1368013750: system.cpu.execute: 1368013750;f;i;335
1368014375: system.cpu.execute: 1368014375;s;i;336
1371942500: system.cpu.execute: 1371942500;f;i;336
1371942500: system.cpu.execute: 1371942500;s;i;337
1375931875: system.cpu.execute: 1375931875;f;i;337
1375931875: system.cpu.execute: 1375931875;s;i;338
1379920625: system.cpu.execute: 1379920625;f;i;338
1379920625: system.cpu.execute: 1379920625;s;i;339
1383843750: system.cpu.execute: 1383843750;f;i;339
1383844375: system.cpu.execute: 1383844375;s;i;340
1387833125: system.cpu.execute: 1387833125;f;i;340
1387833750: system.cpu.execute: 1387833750;s;i;341
1391759375: system.cpu.execute: 1391759375;f;i;341
1391759375: system.cpu.execute: 1391759375;s;i;342
1395748750: system.cpu.execute: 1395748750;f;i;342
1395749375: system.cpu.execute: 1395749375;s;i;343
1399738125: system.cpu.execute: 1399738125;f;i;343
1399738750: system.cpu.execute: 1399738750;s;i;344
1403665000: system.cpu.execute: 1403665000;f;i;344
1403665625: system.cpu.execute: 1403665625;s;i;345
1407656250: system.cpu.execute: 1407656250;f;i;345
1407656250: system.cpu.execute: 1407656250;s;i;346
1411624375: system.cpu.execute: 1411624375;f;i;346
1411626250: system.cpu.execute: 1411626250;s;i;347
1415567500: system.cpu.execute: 1415567500;f;i;347
1415567500: system.cpu.execute: 1415567500;s;i;348
1419556875: system.cpu.execute: 1419556875;f;i;348
1419556875: system.cpu.execute: 1419556875;s;i;349
1423483750: system.cpu.execute: 1423483750;f;i;349
1423483750: system.cpu.execute: 1423483750;s;i;350
1427473125: system.cpu.execute: 1427473125;f;i;350
1427473125: system.cpu.execute: 1427473125;s;i;351
1431462500: system.cpu.execute: 1431462500;f;i;351
1431462500: system.cpu.execute: 1431462500;s;i;352
1435384375: system.cpu.execute: 1435384375;f;i;352
1435385000: system.cpu.execute: 1435385000;s;i;353
1439375000: system.cpu.execute: 1439375000;f;i;353
1439375000: system.cpu.execute: 1439375000;s;i;354
1443331875: system.cpu.execute: 1443331875;f;i;354
1443333750: system.cpu.execute: 1443333750;s;i;355
1447291875: system.cpu.execute: 1447291875;f;i;355
1447291875: system.cpu.execute: 1447291875;s;i;356
1451281250: system.cpu.execute: 1451281250;f;i;356
1451281250: system.cpu.execute: 1451281250;s;i;357
1455205625: system.cpu.execute: 1455205625;f;i;357
1455205625: system.cpu.execute: 1455205625;s;i;358
1459195625: system.cpu.execute: 1459195625;f;i;358
1459195625: system.cpu.execute: 1459195625;s;i;359
1463186875: system.cpu.execute: 1463186875;f;i;359
1463186875: system.cpu.execute: 1463186875;s;i;360
1467108750: system.cpu.execute: 1467108750;f;i;360
1467109375: system.cpu.execute: 1467109375;s;i;361
1471098125: system.cpu.execute: 1471098125;f;i;361
1471098750: system.cpu.execute: 1471098750;s;i;362
1475040000: system.cpu.execute: 1475040000;f;i;362
1475040625: system.cpu.execute: 1475040625;s;i;363
1479016250: system.cpu.execute: 1479016250;f;i;363
1479016250: system.cpu.execute: 1479016250;s;i;364
1483005625: system.cpu.execute: 1483005625;f;i;364
1483005625: system.cpu.execute: 1483005625;s;i;365
1486928125: system.cpu.execute: 1486928125;f;i;365
1486928125: system.cpu.execute: 1486928125;s;i;366
1490917500: system.cpu.execute: 1490917500;f;i;366
1490918125: system.cpu.execute: 1490918125;s;i;367
1494906875: system.cpu.execute: 1494906875;f;i;367
1494907500: system.cpu.execute: 1494907500;s;i;368
1498833125: system.cpu.execute: 1498833125;f;i;368
1498833125: system.cpu.execute: 1498833125;s;i;369
1502822500: system.cpu.execute: 1502822500;f;i;369
1502823125: system.cpu.execute: 1502823125;s;i;370
1506756875: system.cpu.execute: 1506756875;f;i;370
1506756875: system.cpu.execute: 1506756875;s;i;371
1510736875: system.cpu.execute: 1510736875;f;i;371
1510738750: system.cpu.execute: 1510738750;s;i;372
1514729375: system.cpu.execute: 1514729375;f;i;372
1514730000: system.cpu.execute: 1514730000;s;i;373
1518651875: system.cpu.execute: 1518651875;f;i;373
1518651875: system.cpu.execute: 1518651875;s;i;374
1522641250: system.cpu.execute: 1522641250;f;i;374
1522641250: system.cpu.execute: 1522641250;s;i;375
1526630625: system.cpu.execute: 1526630625;f;i;375
1526630625: system.cpu.execute: 1526630625;s;i;376
1530557500: system.cpu.execute: 1530557500;f;i;376
1530557500: system.cpu.execute: 1530557500;s;i;377
1533161250: system.cpu.execute: 1533161250;f;i;377
1533161250: system.cpu.execute: 1533161250;f;d;0
1533161250: system.cpu.execute: 1533161250;s;i;377
1543709375: system.cpu.execute: 1543709375;f;i;377
1543711250: system.cpu.execute: 1543711250;s;i;378
1555510625: system.cpu.execute: 1555510625;f;i;378
