  78563: system.cpu.commit: 78563;s;i;0
14303161: system.cpu.commit: 14303161;f;i;0
14303161: system.cpu.commit: 14303161;s;f;0
29686485: system.cpu.commit: 29686485;f;f;0
29686485: system.cpu.commit: 29686485;s;f;1
42279727: system.cpu.commit: 42279727;f;f;1
42279727: system.cpu.commit: 42279727;s;f;2
54296423: system.cpu.commit: 54296423;f;f;2
54296423: system.cpu.commit: 54296423;s;f;3
66424234: system.cpu.commit: 66424234;f;f;3
66424234: system.cpu.commit: 66424234;s;f;4
74610123: system.cpu.commit: 74610123;f;f;4
74610123: system.cpu.commit: 74610123;s;f;5
79424063: system.cpu.commit: 79424063;f;f;5
79424063: system.cpu.commit: 79424063;s;f;6
84241133: system.cpu.commit: 84241133;f;f;6
84241133: system.cpu.commit: 84241133;s;f;7
89135514: system.cpu.commit: 89135514;f;f;7
89135514: system.cpu.commit: 89135514;s;f;8
93938186: system.cpu.commit: 93938186;f;f;8
93938186: system.cpu.commit: 93938186;s;f;9
98754004: system.cpu.commit: 98754004;f;f;9
98754004: system.cpu.commit: 98754004;s;f;10
103576082: system.cpu.commit: 103576082;f;f;10
103576082: system.cpu.commit: 103576082;s;f;11
108438537: system.cpu.commit: 108438537;f;f;11
108438537: system.cpu.commit: 108438537;s;f;12
113256859: system.cpu.commit: 113256859;f;f;12
113256859: system.cpu.commit: 113256859;s;f;13
118068295: system.cpu.commit: 118068295;f;f;13
118068295: system.cpu.commit: 118068295;s;f;14
122920108: system.cpu.commit: 122920108;f;f;14
122920108: system.cpu.commit: 122920108;s;f;15
127735926: system.cpu.commit: 127735926;f;f;15
127735926: system.cpu.commit: 127735926;s;f;16
132549866: system.cpu.commit: 132549866;f;f;16
132549866: system.cpu.commit: 132549866;s;f;17
137406374: system.cpu.commit: 137406374;f;f;17
137406374: system.cpu.commit: 137406374;s;f;18
142217497: system.cpu.commit: 142217497;f;f;18
142217497: system.cpu.commit: 142217497;s;f;19
147031437: system.cpu.commit: 147031437;f;f;19
147031437: system.cpu.commit: 147031437;s;f;20
151851950: system.cpu.commit: 151851950;f;f;20
151851950: system.cpu.commit: 151851950;s;f;21
156703763: system.cpu.commit: 156703763;f;f;21
156703763: system.cpu.commit: 156703763;s;f;22
161513008: system.cpu.commit: 161513008;f;f;22
161513008: system.cpu.commit: 161513008;s;f;23
166328826: system.cpu.commit: 166328826;f;f;23
166328826: system.cpu.commit: 166328826;s;f;24
171180639: system.cpu.commit: 171180639;f;f;24
171180639: system.cpu.commit: 171180639;s;f;25
176001152: system.cpu.commit: 176001152;f;f;25
176001152: system.cpu.commit: 176001152;s;f;26
180810397: system.cpu.commit: 180810397;f;f;26
180810397: system.cpu.commit: 180810397;s;f;27
185621207: system.cpu.commit: 185621207;f;f;27
185621207: system.cpu.commit: 185621207;s;f;28
190476150: system.cpu.commit: 190476150;f;f;28
190476150: system.cpu.commit: 190476150;s;f;29
195293220: system.cpu.commit: 195293220;f;f;29
195293220: system.cpu.commit: 195293220;s;f;30
200102778: system.cpu.commit: 200102778;f;f;30
200102778: system.cpu.commit: 200102778;s;f;31
204959599: system.cpu.commit: 204959599;f;f;31
204959599: system.cpu.commit: 204959599;s;f;32
209768531: system.cpu.commit: 209768531;f;f;32
209768531: system.cpu.commit: 209768531;s;f;33
214590609: system.cpu.commit: 214590609;f;f;33
214590609: system.cpu.commit: 214590609;s;f;34
219447430: system.cpu.commit: 219447430;f;f;34
219447430: system.cpu.commit: 219447430;s;f;35
224250102: system.cpu.commit: 224250102;f;f;35
224250102: system.cpu.commit: 224250102;s;f;36
229065920: system.cpu.commit: 229065920;f;f;36
229065920: system.cpu.commit: 229065920;s;f;37
233887998: system.cpu.commit: 233887998;f;f;37
233887998: system.cpu.commit: 233887998;s;f;38
238731673: system.cpu.commit: 238731673;f;f;38
238731673: system.cpu.commit: 238731673;s;f;39
243549995: system.cpu.commit: 243549995;f;f;39
243549995: system.cpu.commit: 243549995;s;f;40
248361431: system.cpu.commit: 248361431;f;f;40
248361431: system.cpu.commit: 248361431;s;f;41
253213244: system.cpu.commit: 253213244;f;f;41
253213244: system.cpu.commit: 253213244;s;f;42
258029062: system.cpu.commit: 258029062;f;f;42
258029062: system.cpu.commit: 258029062;s;f;43
262847384: system.cpu.commit: 262847384;f;f;43
262847384: system.cpu.commit: 262847384;s;f;44
267699510: system.cpu.commit: 267699510;f;f;44
267699510: system.cpu.commit: 267699510;s;f;45
272510633: system.cpu.commit: 272510633;f;f;45
272510633: system.cpu.commit: 272510633;s;f;46
277324573: system.cpu.commit: 277324573;f;f;46
277324573: system.cpu.commit: 277324573;s;f;47
282146338: system.cpu.commit: 282146338;f;f;47
282146338: system.cpu.commit: 282146338;s;f;48
286996899: system.cpu.commit: 286996899;f;f;48
286996899: system.cpu.commit: 286996899;s;f;49
291806144: system.cpu.commit: 291806144;f;f;49
291806144: system.cpu.commit: 291806144;s;f;50
296616954: system.cpu.commit: 296616954;f;f;50
296616954: system.cpu.commit: 296616954;s;f;51
301473775: system.cpu.commit: 301473775;f;f;51
301473775: system.cpu.commit: 301473775;s;f;52
306294288: system.cpu.commit: 306294288;f;f;52
306294288: system.cpu.commit: 306294288;s;f;53
311098525: system.cpu.commit: 311098525;f;f;53
311098525: system.cpu.commit: 311098525;s;f;54
315914343: system.cpu.commit: 315914343;f;f;54
315914343: system.cpu.commit: 315914343;s;f;55
320769286: system.cpu.commit: 320769286;f;f;55
320769286: system.cpu.commit: 320769286;s;f;56
325586356: system.cpu.commit: 325586356;f;f;56
325586356: system.cpu.commit: 325586356;s;f;57
330395914: system.cpu.commit: 330395914;f;f;57
330395914: system.cpu.commit: 330395914;s;f;58
335247727: system.cpu.commit: 335247727;f;f;58
335247727: system.cpu.commit: 335247727;s;f;59
340061667: system.cpu.commit: 340061667;f;f;59
340061667: system.cpu.commit: 340061667;s;f;60
344883745: system.cpu.commit: 344883745;f;f;60
344883745: system.cpu.commit: 344883745;s;f;61
349735558: system.cpu.commit: 349735558;f;f;61
349735558: system.cpu.commit: 349735558;s;f;62
354543238: system.cpu.commit: 354543238;f;f;62
354543238: system.cpu.commit: 354543238;s;f;63
359359056: system.cpu.commit: 359359056;f;f;63
359359056: system.cpu.commit: 359359056;s;f;64
364181134: system.cpu.commit: 364181134;f;f;64
364181134: system.cpu.commit: 364181134;s;f;65
369024809: system.cpu.commit: 369024809;f;f;65
369024809: system.cpu.commit: 369024809;s;f;66
373843131: system.cpu.commit: 373843131;f;f;66
373843131: system.cpu.commit: 373843131;s;f;67
378654567: system.cpu.commit: 378654567;f;f;67
378654567: system.cpu.commit: 378654567;s;f;68
383506380: system.cpu.commit: 383506380;f;f;68
383506380: system.cpu.commit: 383506380;s;f;69
388322198: system.cpu.commit: 388322198;f;f;69
388322198: system.cpu.commit: 388322198;s;f;70
393140520: system.cpu.commit: 393140520;f;f;70
393140520: system.cpu.commit: 393140520;s;f;71
397946948: system.cpu.commit: 397946948;f;f;71
397946948: system.cpu.commit: 397946948;s;f;72
402803769: system.cpu.commit: 402803769;f;f;72
402803769: system.cpu.commit: 402803769;s;f;73
407617709: system.cpu.commit: 407617709;f;f;73
407617709: system.cpu.commit: 407617709;s;f;74
412433214: system.cpu.commit: 412433214;f;f;74
412433214: system.cpu.commit: 412433214;s;f;75
417290035: system.cpu.commit: 417290035;f;f;75
417290035: system.cpu.commit: 417290035;s;f;76
422099280: system.cpu.commit: 422099280;f;f;76
422099280: system.cpu.commit: 422099280;s;f;77
426910090: system.cpu.commit: 426910090;f;f;77
426910090: system.cpu.commit: 426910090;s;f;78
431766911: system.cpu.commit: 431766911;f;f;78
431766911: system.cpu.commit: 431766911;s;f;79
436582416: system.cpu.commit: 436582416;f;f;79
436582416: system.cpu.commit: 436582416;s;f;80
441391661: system.cpu.commit: 441391661;f;f;80
441391661: system.cpu.commit: 441391661;s;f;81
446207479: system.cpu.commit: 446207479;f;f;81
446207479: system.cpu.commit: 446207479;s;f;82
451057414: system.cpu.commit: 451057414;f;f;82
451057414: system.cpu.commit: 451057414;s;f;83
455879492: system.cpu.commit: 455879492;f;f;83
455879492: system.cpu.commit: 455879492;s;f;84
460689050: system.cpu.commit: 460689050;f;f;84
460689050: system.cpu.commit: 460689050;s;f;85
465540863: system.cpu.commit: 465540863;f;f;85
465540863: system.cpu.commit: 465540863;s;f;86
470354803: system.cpu.commit: 470354803;f;f;86
470354803: system.cpu.commit: 470354803;s;f;87
475170621: system.cpu.commit: 475170621;f;f;87
475170621: system.cpu.commit: 475170621;s;f;88
480028694: system.cpu.commit: 480028694;f;f;88
480028694: system.cpu.commit: 480028694;s;f;89
484836374: system.cpu.commit: 484836374;f;f;89
484836374: system.cpu.commit: 484836374;s;f;90
489652192: system.cpu.commit: 489652192;f;f;90
489652192: system.cpu.commit: 489652192;s;f;91
494474270: system.cpu.commit: 494474270;f;f;91
494474270: system.cpu.commit: 494474270;s;f;92
499317945: system.cpu.commit: 499317945;f;f;92
499317945: system.cpu.commit: 499317945;s;f;93
504136267: system.cpu.commit: 504136267;f;f;93
504136267: system.cpu.commit: 504136267;s;f;94
508947703: system.cpu.commit: 508947703;f;f;94
508947703: system.cpu.commit: 508947703;s;f;95
513799516: system.cpu.commit: 513799516;f;f;95
513799516: system.cpu.commit: 513799516;s;f;96
518615334: system.cpu.commit: 518615334;f;f;96
518615334: system.cpu.commit: 518615334;s;f;97
523429274: system.cpu.commit: 523429274;f;f;97
523429274: system.cpu.commit: 523429274;s;f;98
528240084: system.cpu.commit: 528240084;f;f;98
528240084: system.cpu.commit: 528240084;s;f;99
533096905: system.cpu.commit: 533096905;f;f;99
533096905: system.cpu.commit: 533096905;s;f;100
537905837: system.cpu.commit: 537905837;f;f;100
537905837: system.cpu.commit: 537905837;s;f;101
542726350: system.cpu.commit: 542726350;f;f;101
542726350: system.cpu.commit: 542726350;s;f;102
547583171: system.cpu.commit: 547583171;f;f;102
547583171: system.cpu.commit: 547583171;s;f;103
552387408: system.cpu.commit: 552387408;f;f;103
552387408: system.cpu.commit: 552387408;s;f;104
557203226: system.cpu.commit: 557203226;f;f;104
557203226: system.cpu.commit: 557203226;s;f;105
562055039: system.cpu.commit: 562055039;f;f;105
562055039: system.cpu.commit: 562055039;s;f;106
566868979: system.cpu.commit: 566868979;f;f;106
566868979: system.cpu.commit: 566868979;s;f;107
571684797: system.cpu.commit: 571684797;f;f;107
571684797: system.cpu.commit: 571684797;s;f;108
576500615: system.cpu.commit: 576500615;f;f;108
576500615: system.cpu.commit: 576500615;s;f;109
581350550: system.cpu.commit: 581350550;f;f;109
581350550: system.cpu.commit: 581350550;s;f;110
586172628: system.cpu.commit: 586172628;f;f;110
586172628: system.cpu.commit: 586172628;s;f;111
590982186: system.cpu.commit: 590982186;f;f;111
590982186: system.cpu.commit: 590982186;s;f;112
595833999: system.cpu.commit: 595833999;f;f;112
595833999: system.cpu.commit: 595833999;s;f;113
600647939: system.cpu.commit: 600647939;f;f;113
600647939: system.cpu.commit: 600647939;s;f;114
605463757: system.cpu.commit: 605463757;f;f;114
605463757: system.cpu.commit: 605463757;s;f;115
610321830: system.cpu.commit: 610321830;f;f;115
610321830: system.cpu.commit: 610321830;s;f;116
615129510: system.cpu.commit: 615129510;f;f;116
615129510: system.cpu.commit: 615129510;s;f;117
619945328: system.cpu.commit: 619945328;f;f;117
619945328: system.cpu.commit: 619945328;s;f;118
624769284: system.cpu.commit: 624769284;f;f;118
624769284: system.cpu.commit: 624769284;s;f;119
629611081: system.cpu.commit: 629611081;f;f;119
629611081: system.cpu.commit: 629611081;s;f;120
634429403: system.cpu.commit: 634429403;f;f;120
634429403: system.cpu.commit: 634429403;s;f;121
639235831: system.cpu.commit: 639235831;f;f;121
639235831: system.cpu.commit: 639235831;s;f;122
644092652: system.cpu.commit: 644092652;f;f;122
644092652: system.cpu.commit: 644092652;s;f;123
648908470: system.cpu.commit: 648908470;f;f;123
648908470: system.cpu.commit: 648908470;s;f;124
653717402: system.cpu.commit: 653717402;f;f;124
653717402: system.cpu.commit: 653717402;s;f;125
658533220: system.cpu.commit: 658533220;f;f;125
658533220: system.cpu.commit: 658533220;s;f;126
663385033: system.cpu.commit: 663385033;f;f;126
663385033: system.cpu.commit: 663385033;s;f;127
668198973: system.cpu.commit: 668198973;f;f;127
668198973: system.cpu.commit: 668198973;s;f;128
673019486: system.cpu.commit: 673019486;f;f;128
673019486: system.cpu.commit: 673019486;s;f;129
677871299: system.cpu.commit: 677871299;f;f;129
677871299: system.cpu.commit: 677871299;s;f;130
682680544: system.cpu.commit: 682680544;f;f;130
682680544: system.cpu.commit: 682680544;s;f;131
687496362: system.cpu.commit: 687496362;f;f;131
687496362: system.cpu.commit: 687496362;s;f;132
692348175: system.cpu.commit: 692348175;f;f;132
692348175: system.cpu.commit: 692348175;s;f;133
697162115: system.cpu.commit: 697162115;f;f;133
697162115: system.cpu.commit: 697162115;s;f;134
701977933: system.cpu.commit: 701977933;f;f;134
701977933: system.cpu.commit: 701977933;s;f;135
706793751: system.cpu.commit: 706793751;f;f;135
706793751: system.cpu.commit: 706793751;s;f;136
711643686: system.cpu.commit: 711643686;f;f;136
711643686: system.cpu.commit: 711643686;s;f;137
716465764: system.cpu.commit: 716465764;f;f;137
716465764: system.cpu.commit: 716465764;s;f;138
721275322: system.cpu.commit: 721275322;f;f;138
721275322: system.cpu.commit: 721275322;s;f;139
726127135: system.cpu.commit: 726127135;f;f;139
726127135: system.cpu.commit: 726127135;s;f;140
730941075: system.cpu.commit: 730941075;f;f;140
730941075: system.cpu.commit: 730941075;s;f;141
735756893: system.cpu.commit: 735756893;f;f;141
735756893: system.cpu.commit: 735756893;s;f;142
740567703: system.cpu.commit: 740567703;f;f;142
740567703: system.cpu.commit: 740567703;s;f;143
745422646: system.cpu.commit: 745422646;f;f;143
745422646: system.cpu.commit: 745422646;s;f;144
750238464: system.cpu.commit: 750238464;f;f;144
750238464: system.cpu.commit: 750238464;s;f;145
755055534: system.cpu.commit: 755055534;f;f;145
755055534: system.cpu.commit: 755055534;s;f;146
759904217: system.cpu.commit: 759904217;f;f;146
759904217: system.cpu.commit: 759904217;s;f;147
764717531: system.cpu.commit: 764717531;f;f;147
764717531: system.cpu.commit: 764717531;s;f;148
769528967: system.cpu.commit: 769528967;f;f;148
769528967: system.cpu.commit: 769528967;s;f;149
774385788: system.cpu.commit: 774385788;f;f;149
774385788: system.cpu.commit: 774385788;s;f;150
779196598: system.cpu.commit: 779196598;f;f;150
779196598: system.cpu.commit: 779196598;s;f;151
784010538: system.cpu.commit: 784010538;f;f;151
784010538: system.cpu.commit: 784010538;s;f;152
788826356: system.cpu.commit: 788826356;f;f;152
788826356: system.cpu.commit: 788826356;s;f;153
793678169: system.cpu.commit: 793678169;f;f;153
793678169: system.cpu.commit: 793678169;s;f;154
798492109: system.cpu.commit: 798492109;f;f;154
798492109: system.cpu.commit: 798492109;s;f;155
803312622: system.cpu.commit: 803312622;f;f;155
803312622: system.cpu.commit: 803312622;s;f;156
808164435: system.cpu.commit: 808164435;f;f;156
808164435: system.cpu.commit: 808164435;s;f;157
812973680: system.cpu.commit: 812973680;f;f;157
812973680: system.cpu.commit: 812973680;s;f;158
817789498: system.cpu.commit: 817789498;f;f;158
817789498: system.cpu.commit: 817789498;s;f;159
822641311: system.cpu.commit: 822641311;f;f;159
822641311: system.cpu.commit: 822641311;s;f;160
827455251: system.cpu.commit: 827455251;f;f;160
827455251: system.cpu.commit: 827455251;s;f;161
832271069: system.cpu.commit: 832271069;f;f;161
832271069: system.cpu.commit: 832271069;s;f;162
837086887: system.cpu.commit: 837086887;f;f;162
837086887: system.cpu.commit: 837086887;s;f;163
841936822: system.cpu.commit: 841936822;f;f;163
841936822: system.cpu.commit: 841936822;s;f;164
846758900: system.cpu.commit: 846758900;f;f;164
846758900: system.cpu.commit: 846758900;s;f;165
851570336: system.cpu.commit: 851570336;f;f;165
851570336: system.cpu.commit: 851570336;s;f;166
856420271: system.cpu.commit: 856420271;f;f;166
856420271: system.cpu.commit: 856420271;s;f;167
861234211: system.cpu.commit: 861234211;f;f;167
861234211: system.cpu.commit: 861234211;s;f;168
866051281: system.cpu.commit: 866051281;f;f;168
866051281: system.cpu.commit: 866051281;s;f;169
870860839: system.cpu.commit: 870860839;f;f;169
870860839: system.cpu.commit: 870860839;s;f;170
875715782: system.cpu.commit: 875715782;f;f;170
875715782: system.cpu.commit: 875715782;s;f;171
880526592: system.cpu.commit: 880526592;f;f;171
880526592: system.cpu.commit: 880526592;s;f;172
885348670: system.cpu.commit: 885348670;f;f;172
885348670: system.cpu.commit: 885348670;s;f;173
890197353: system.cpu.commit: 890197353;f;f;173
890197353: system.cpu.commit: 890197353;s;f;174
895010667: system.cpu.commit: 895010667;f;f;174
895010667: system.cpu.commit: 895010667;s;f;175
899822103: system.cpu.commit: 899822103;f;f;175
899822103: system.cpu.commit: 899822103;s;f;176
904673916: system.cpu.commit: 904673916;f;f;176
904673916: system.cpu.commit: 904673916;s;f;177
909489734: system.cpu.commit: 909489734;f;f;177
909489734: system.cpu.commit: 909489734;s;f;178
914303674: system.cpu.commit: 914303674;f;f;178
914303674: system.cpu.commit: 914303674;s;f;179
919119492: system.cpu.commit: 919119492;f;f;179
919119492: system.cpu.commit: 919119492;s;f;180
923971305: system.cpu.commit: 923971305;f;f;180
923971305: system.cpu.commit: 923971305;s;f;181
928785245: system.cpu.commit: 928785245;f;f;181
928785245: system.cpu.commit: 928785245;s;f;182
933605758: system.cpu.commit: 933605758;f;f;182
933605758: system.cpu.commit: 933605758;s;f;183
938457571: system.cpu.commit: 938457571;f;f;183
938457571: system.cpu.commit: 938457571;s;f;184
943266816: system.cpu.commit: 943266816;f;f;184
943266816: system.cpu.commit: 943266816;s;f;185
948082634: system.cpu.commit: 948082634;f;f;185
948082634: system.cpu.commit: 948082634;s;f;186
952934447: system.cpu.commit: 952934447;f;f;186
952934447: system.cpu.commit: 952934447;s;f;187
957748387: system.cpu.commit: 957748387;f;f;187
957748387: system.cpu.commit: 957748387;s;f;188
962564205: system.cpu.commit: 962564205;f;f;188
962564205: system.cpu.commit: 962564205;s;f;189
967375015: system.cpu.commit: 967375015;f;f;189
967375015: system.cpu.commit: 967375015;s;f;190
972229958: system.cpu.commit: 972229958;f;f;190
972229958: system.cpu.commit: 972229958;s;f;191
977052036: system.cpu.commit: 977052036;f;f;191
977052036: system.cpu.commit: 977052036;s;f;192
981856586: system.cpu.commit: 981856586;f;f;192
981856586: system.cpu.commit: 981856586;s;f;193
986713407: system.cpu.commit: 986713407;f;f;193
986713407: system.cpu.commit: 986713407;s;f;194
991527347: system.cpu.commit: 991527347;f;f;194
991527347: system.cpu.commit: 991527347;s;f;195
996338157: system.cpu.commit: 996338157;f;f;195
996338157: system.cpu.commit: 996338157;s;f;196
1001153975: system.cpu.commit: 1001153975;f;f;196
1001153975: system.cpu.commit: 1001153975;s;f;197
1006006101: system.cpu.commit: 1006006101;f;f;197
1006006101: system.cpu.commit: 1006006101;s;f;198
1010819728: system.cpu.commit: 1010819728;f;f;198
1010819728: system.cpu.commit: 1010819728;s;f;199
1015641806: system.cpu.commit: 1015641806;f;f;199
1015641806: system.cpu.commit: 1015641806;s;f;200
1020485481: system.cpu.commit: 1020485481;f;f;200
1020485481: system.cpu.commit: 1020485481;s;f;201
1025303803: system.cpu.commit: 1025303803;f;f;201
1025303803: system.cpu.commit: 1025303803;s;f;202
1030115239: system.cpu.commit: 1030115239;f;f;202
1030115239: system.cpu.commit: 1030115239;s;f;203
1034967052: system.cpu.commit: 1034967052;f;f;203
1034967052: system.cpu.commit: 1034967052;s;f;204
1039782870: system.cpu.commit: 1039782870;f;f;204
1039782870: system.cpu.commit: 1039782870;s;f;205
1044601192: system.cpu.commit: 1044601192;f;f;205
1044601192: system.cpu.commit: 1044601192;s;f;206
1049412628: system.cpu.commit: 1049412628;f;f;206
1049412628: system.cpu.commit: 1049412628;s;f;207
1054183374: system.cpu.commit: 1054183374;f;f;207
