  75746: system.cpu.execute: 75746;s;i;0
21089627: system.cpu.execute: 21089627;f;i;0
21089627: system.cpu.execute: 21089627;s;f;0
42340449: system.cpu.execute: 42340449;f;f;0
42340449: system.cpu.execute: 42340449;s;f;1
58198907: system.cpu.execute: 58198907;f;f;1
58198907: system.cpu.execute: 58198907;s;f;2
73991635: system.cpu.execute: 73991635;f;f;2
73991635: system.cpu.execute: 73991635;s;f;3
89738352: system.cpu.execute: 89738352;f;f;3
89738352: system.cpu.execute: 89738352;s;f;4
104880353: system.cpu.execute: 104880353;f;f;4
104880353: system.cpu.execute: 104880353;s;f;5
112912559: system.cpu.execute: 112912559;f;f;5
112912559: system.cpu.execute: 112912559;s;f;6
120926298: system.cpu.execute: 120926298;f;f;6
120926298: system.cpu.execute: 120926298;s;f;7
128900286: system.cpu.execute: 128900286;f;f;7
128900286: system.cpu.execute: 128900286;s;f;8
136854868: system.cpu.execute: 136854868;f;f;8
136854868: system.cpu.execute: 136854868;s;f;9
144828230: system.cpu.execute: 144828230;f;f;9
144828230: system.cpu.execute: 144828230;s;f;10
152786568: system.cpu.execute: 152786568;f;f;10
152786568: system.cpu.execute: 152786568;s;f;11
160747723: system.cpu.execute: 160747723;f;f;11
160747723: system.cpu.execute: 160747723;s;f;12
168714825: system.cpu.execute: 168714825;f;f;12
168714825: system.cpu.execute: 168714825;s;f;13
172872717: system.cpu.execute: 172872717;f;f;13
