  78563: system.cpu.commit: 78563;s;i;0
14597381: system.cpu.commit: 14597381;f;i;0
14597381: system.cpu.commit: 14597381;s;f;0
23271863: system.cpu.commit: 23271863;f;f;0
23271863: system.cpu.commit: 23271863;s;f;1
28461403: system.cpu.commit: 28461403;f;f;1
28461403: system.cpu.commit: 28461403;s;f;2
33653134: system.cpu.commit: 33653134;f;f;2
33653134: system.cpu.commit: 33653134;s;f;3
38845178: system.cpu.commit: 38845178;f;f;3
38845178: system.cpu.commit: 38845178;s;f;4
44034405: system.cpu.commit: 44034405;f;f;4
44034405: system.cpu.commit: 44034405;s;f;5
49226762: system.cpu.commit: 49226762;f;f;5
49226762: system.cpu.commit: 49226762;s;f;6
55950628: system.cpu.commit: 55950628;f;f;6
